<?xml version="1.0" encoding="UTF-8" standalone="no"?>
<!-- Created with Inkscape (http://www.inkscape.org/) -->

<svg
   xmlns:dc="http://purl.org/dc/elements/1.1/"
   xmlns:cc="http://creativecommons.org/ns#"
   xmlns:rdf="http://www.w3.org/1999/02/22-rdf-syntax-ns#"
   xmlns:svg="http://www.w3.org/2000/svg"
   xmlns="http://www.w3.org/2000/svg"
   xmlns:xlink="http://www.w3.org/1999/xlink"
   xmlns:sodipodi="http://sodipodi.sourceforge.net/DTD/sodipodi-0.dtd"
   xmlns:inkscape="http://www.inkscape.org/namespaces/inkscape"
   width="48"
   height="48"
   id="svg3938"
   sodipodi:version="0.32"
   inkscape:version="0.91 r13725"
   version="1.0"
   sodipodi:docname="cairo-dock-enable.svg"
   inkscape:output_extension="org.inkscape.output.svg.inkscape">
  <defs
     id="defs3940">
    <linearGradient
       id="linearGradient2180">
      <stop
         offset="0.0000000"
         id="stop2182"
         style="stop-color:#fbffff;stop-opacity:1.0000000;" />
      <stop
         offset="1.0000000"
         id="stop2184"
         style="stop-color:#ffffff;stop-opacity:0.0000000;" />
    </linearGradient>
    <linearGradient
       inkscape:collect="always"
       xlink:href="#linearGradient2180"
       id="linearGradient4051"
       gradientUnits="userSpaceOnUse"
       x1="325.55533"
       y1="249.8591"
       x2="320.22644"
       y2="474.1716" />
    <radialGradient
       inkscape:collect="always"
       xlink:href="#linearGradient2130"
       id="radialGradient4049"
       gradientUnits="userSpaceOnUse"
       gradientTransform="matrix(1.623165,-2.064176e-7,1.61299e-7,1.268375,-234.7656,-163.6877)"
       cx="376.73111"
       cy="609.92218"
       fx="376.73111"
       fy="609.92218"
       r="315.4028" />
    <radialGradient
       inkscape:collect="always"
       xlink:href="#linearGradient2130"
       id="radialGradient4047"
       gradientUnits="userSpaceOnUse"
       gradientTransform="matrix(1.623165,-2.064176e-7,1.61299e-7,1.268375,-234.7656,-163.6877)"
       cx="376.73111"
       cy="609.92218"
       fx="376.73111"
       fy="609.92218"
       r="315.4028" />
    <radialGradient
       inkscape:collect="always"
       xlink:href="#linearGradient2130"
       id="radialGradient4045"
       gradientUnits="userSpaceOnUse"
       gradientTransform="matrix(1.623165,-2.064176e-7,1.61299e-7,1.268375,-234.7656,-163.6877)"
       cx="376.73111"
       cy="609.92218"
       fx="376.73111"
       fy="609.92218"
       r="315.4028" />
    <radialGradient
       inkscape:collect="always"
       xlink:href="#linearGradient2130"
       id="radialGradient4043"
       gradientUnits="userSpaceOnUse"
       gradientTransform="matrix(1.623165,-2.064176e-7,1.61299e-7,1.268375,-234.7656,-163.6877)"
       cx="376.73111"
       cy="609.92218"
       fx="376.73111"
       fy="609.92218"
       r="315.4028" />
    <radialGradient
       inkscape:collect="always"
       xlink:href="#linearGradient2130"
       id="radialGradient4041"
       gradientUnits="userSpaceOnUse"
       gradientTransform="matrix(1.623165,-2.064176e-7,1.61299e-7,1.268375,-234.7656,-163.6877)"
       cx="376.73111"
       cy="609.92218"
       fx="376.73111"
       fy="609.92218"
       r="315.4028" />
    <radialGradient
       inkscape:collect="always"
       xlink:href="#linearGradient2130"
       id="radialGradient4039"
       gradientUnits="userSpaceOnUse"
       gradientTransform="matrix(1.623165,-2.064176e-7,1.61299e-7,1.268375,-234.7656,-163.6877)"
       cx="376.73111"
       cy="609.92218"
       fx="376.73111"
       fy="609.92218"
       r="315.4028" />
    <radialGradient
       inkscape:collect="always"
       xlink:href="#linearGradient2130"
       id="radialGradient4037"
       gradientUnits="userSpaceOnUse"
       gradientTransform="matrix(1.623165,-2.064176e-7,1.61299e-7,1.268375,-234.7656,-163.6877)"
       cx="376.73111"
       cy="609.92218"
       fx="376.73111"
       fy="609.92218"
       r="315.4028" />
    <radialGradient
       inkscape:collect="always"
       xlink:href="#linearGradient2130"
       id="radialGradient4035"
       gradientUnits="userSpaceOnUse"
       gradientTransform="matrix(1.623165,-2.064176e-7,1.61299e-7,1.268375,-234.7656,-163.6877)"
       cx="376.73111"
       cy="609.92218"
       fx="376.73111"
       fy="609.92218"
       r="315.4028" />
    <radialGradient
       inkscape:collect="always"
       xlink:href="#linearGradient2130"
       id="radialGradient4033"
       gradientUnits="userSpaceOnUse"
       gradientTransform="matrix(1.623165,-2.064176e-7,1.61299e-7,1.268375,-234.7656,-163.6877)"
       cx="376.73111"
       cy="609.92218"
       fx="376.73111"
       fy="609.92218"
       r="315.4028" />
    <radialGradient
       inkscape:collect="always"
       xlink:href="#linearGradient2130"
       id="radialGradient4031"
       gradientUnits="userSpaceOnUse"
       gradientTransform="matrix(1.623165,-2.064176e-7,1.61299e-7,1.268375,-234.7656,-163.6877)"
       cx="376.73111"
       cy="609.92218"
       fx="376.73111"
       fy="609.92218"
       r="315.4028" />
    <radialGradient
       inkscape:collect="always"
       xlink:href="#linearGradient2130"
       id="radialGradient4029"
       gradientUnits="userSpaceOnUse"
       gradientTransform="matrix(1.623165,-2.064176e-7,1.61299e-7,1.268375,-234.7656,-163.6877)"
       cx="376.73111"
       cy="609.92218"
       fx="376.73111"
       fy="609.92218"
       r="315.4028" />
    <radialGradient
       inkscape:collect="always"
       xlink:href="#linearGradient2130"
       id="radialGradient4027"
       gradientUnits="userSpaceOnUse"
       gradientTransform="matrix(1.623165,-2.064176e-7,1.61299e-7,1.268375,-234.7656,-163.6877)"
       cx="376.73111"
       cy="609.92218"
       fx="376.73111"
       fy="609.92218"
       r="315.4028" />
    <radialGradient
       inkscape:collect="always"
       xlink:href="#linearGradient2130"
       id="radialGradient4025"
       gradientUnits="userSpaceOnUse"
       gradientTransform="matrix(1.623165,-2.064176e-7,1.61299e-7,1.268375,-234.7656,-163.6877)"
       cx="376.73111"
       cy="609.92218"
       fx="376.73111"
       fy="609.92218"
       r="315.4028" />
    <radialGradient
       inkscape:collect="always"
       xlink:href="#linearGradient2130"
       id="radialGradient4023"
       gradientUnits="userSpaceOnUse"
       gradientTransform="matrix(1.623165,-2.064176e-7,1.61299e-7,1.268375,-234.7656,-163.6877)"
       cx="376.73111"
       cy="609.92218"
       fx="376.73111"
       fy="609.92218"
       r="315.4028" />
    <radialGradient
       inkscape:collect="always"
       xlink:href="#linearGradient2130"
       id="radialGradient4021"
       gradientUnits="userSpaceOnUse"
       gradientTransform="matrix(1.623165,-2.064176e-7,1.61299e-7,1.268375,-234.7656,-163.6877)"
       cx="376.73111"
       cy="609.92218"
       fx="376.73111"
       fy="609.92218"
       r="315.4028" />
    <radialGradient
       inkscape:collect="always"
       xlink:href="#linearGradient2130"
       id="radialGradient4019"
       gradientUnits="userSpaceOnUse"
       gradientTransform="matrix(1.623165,-2.064176e-7,1.61299e-7,1.268375,-234.7656,-163.6877)"
       cx="376.73111"
       cy="609.92218"
       fx="376.73111"
       fy="609.92218"
       r="315.4028" />
    <radialGradient
       inkscape:collect="always"
       xlink:href="#linearGradient2130"
       id="radialGradient4017"
       gradientUnits="userSpaceOnUse"
       gradientTransform="matrix(1.623165,-2.064176e-7,1.61299e-7,1.268375,-234.7656,-163.6877)"
       cx="376.73111"
       cy="609.92218"
       fx="376.73111"
       fy="609.92218"
       r="315.4028" />
    <radialGradient
       inkscape:collect="always"
       xlink:href="#linearGradient2130"
       id="radialGradient4015"
       gradientUnits="userSpaceOnUse"
       gradientTransform="matrix(1.623165,-2.064176e-7,1.61299e-7,1.268375,-234.7656,-163.6877)"
       cx="376.73111"
       cy="609.92218"
       fx="376.73111"
       fy="609.92218"
       r="315.4028" />
    <radialGradient
       inkscape:collect="always"
       xlink:href="#linearGradient2130"
       id="radialGradient4013"
       gradientUnits="userSpaceOnUse"
       gradientTransform="matrix(1.623165,-2.064176e-7,1.61299e-7,1.268375,-234.7656,-163.6877)"
       cx="376.73111"
       cy="609.92218"
       fx="376.73111"
       fy="609.92218"
       r="315.4028" />
    <radialGradient
       inkscape:collect="always"
       xlink:href="#linearGradient2130"
       id="radialGradient4011"
       gradientUnits="userSpaceOnUse"
       gradientTransform="matrix(1.623165,-2.064176e-7,1.61299e-7,1.268375,-234.7656,-163.6877)"
       cx="376.73111"
       cy="609.92218"
       fx="376.73111"
       fy="609.92218"
       r="315.4028" />
    <radialGradient
       inkscape:collect="always"
       xlink:href="#linearGradient2130"
       id="radialGradient4009"
       gradientUnits="userSpaceOnUse"
       gradientTransform="matrix(1.623165,-2.064176e-7,1.61299e-7,1.268375,-234.7656,-163.6877)"
       cx="376.73111"
       cy="609.92218"
       fx="376.73111"
       fy="609.92218"
       r="315.4028" />
    <radialGradient
       inkscape:collect="always"
       xlink:href="#linearGradient2130"
       id="radialGradient4007"
       gradientUnits="userSpaceOnUse"
       gradientTransform="matrix(1.623165,-2.064176e-7,1.61299e-7,1.268375,-234.7656,-163.6877)"
       cx="376.73111"
       cy="609.92218"
       fx="376.73111"
       fy="609.92218"
       r="315.4028" />
    <radialGradient
       inkscape:collect="always"
       xlink:href="#linearGradient2130"
       id="radialGradient4005"
       gradientUnits="userSpaceOnUse"
       gradientTransform="matrix(1.623165,-2.064176e-7,1.61299e-7,1.268375,-234.7656,-163.6877)"
       cx="376.73111"
       cy="609.92218"
       fx="376.73111"
       fy="609.92218"
       r="315.4028" />
    <radialGradient
       inkscape:collect="always"
       xlink:href="#linearGradient2130"
       id="radialGradient4003"
       gradientUnits="userSpaceOnUse"
       gradientTransform="matrix(1.623165,-2.064176e-7,1.61299e-7,1.268375,-234.7656,-163.6877)"
       cx="376.73111"
       cy="609.92218"
       fx="376.73111"
       fy="609.92218"
       r="315.4028" />
    <radialGradient
       inkscape:collect="always"
       xlink:href="#linearGradient2130"
       id="radialGradient4001"
       gradientUnits="userSpaceOnUse"
       gradientTransform="matrix(1.623165,-2.064176e-7,1.61299e-7,1.268375,-234.7656,-163.6877)"
       cx="376.73111"
       cy="609.92218"
       fx="376.73111"
       fy="609.92218"
       r="315.4028" />
    <radialGradient
       inkscape:collect="always"
       xlink:href="#linearGradient2130"
       id="radialGradient3999"
       gradientUnits="userSpaceOnUse"
       gradientTransform="matrix(1.623165,-2.064176e-7,1.61299e-7,1.268375,-234.7656,-163.6877)"
       cx="376.73111"
       cy="609.92218"
       fx="376.73111"
       fy="609.92218"
       r="315.4028" />
    <radialGradient
       inkscape:collect="always"
       xlink:href="#linearGradient2130"
       id="radialGradient3997"
       gradientUnits="userSpaceOnUse"
       gradientTransform="matrix(1.623165,-2.064176e-7,1.61299e-7,1.268375,-234.7656,-163.6877)"
       cx="376.73111"
       cy="609.92218"
       fx="376.73111"
       fy="609.92218"
       r="315.4028" />
    <radialGradient
       inkscape:collect="always"
       xlink:href="#linearGradient2130"
       id="radialGradient3995"
       gradientUnits="userSpaceOnUse"
       gradientTransform="matrix(1.623165,-2.064176e-7,1.61299e-7,1.268375,-234.7656,-163.6877)"
       cx="376.73111"
       cy="609.92218"
       fx="376.73111"
       fy="609.92218"
       r="315.4028" />
    <radialGradient
       inkscape:collect="always"
       xlink:href="#linearGradient2130"
       id="radialGradient3993"
       gradientUnits="userSpaceOnUse"
       gradientTransform="matrix(1.623165,-2.064176e-7,1.61299e-7,1.268375,-234.7656,-163.6877)"
       cx="376.73111"
       cy="609.92218"
       fx="376.73111"
       fy="609.92218"
       r="315.4028" />
    <radialGradient
       inkscape:collect="always"
       xlink:href="#linearGradient2130"
       id="radialGradient3991"
       gradientUnits="userSpaceOnUse"
       gradientTransform="matrix(1.623165,-2.064176e-7,1.61299e-7,1.268375,-234.7656,-163.6877)"
       cx="376.73111"
       cy="609.92218"
       fx="376.73111"
       fy="609.92218"
       r="315.4028" />
    <radialGradient
       inkscape:collect="always"
       xlink:href="#linearGradient2130"
       id="radialGradient3989"
       gradientUnits="userSpaceOnUse"
       gradientTransform="matrix(1.623165,-2.064176e-7,1.61299e-7,1.268375,-234.7656,-163.6877)"
       cx="376.73111"
       cy="609.92218"
       fx="376.73111"
       fy="609.92218"
       r="315.4028" />
    <radialGradient
       inkscape:collect="always"
       xlink:href="#linearGradient2130"
       id="radialGradient3987"
       gradientUnits="userSpaceOnUse"
       gradientTransform="matrix(1.623165,-2.064176e-7,1.61299e-7,1.268375,-234.7656,-163.6877)"
       cx="376.73111"
       cy="609.92218"
       fx="376.73111"
       fy="609.92218"
       r="315.4028" />
    <radialGradient
       inkscape:collect="always"
       xlink:href="#linearGradient2130"
       id="radialGradient3985"
       gradientUnits="userSpaceOnUse"
       gradientTransform="matrix(1.623165,-2.064176e-7,1.61299e-7,1.268375,-234.7656,-163.6877)"
       cx="376.73111"
       cy="609.92218"
       fx="376.73111"
       fy="609.92218"
       r="315.4028" />
    <radialGradient
       inkscape:collect="always"
       xlink:href="#linearGradient2130"
       id="radialGradient3983"
       gradientUnits="userSpaceOnUse"
       gradientTransform="matrix(1.623165,-2.064176e-7,1.61299e-7,1.268375,-234.7656,-163.6877)"
       cx="376.73111"
       cy="609.92218"
       fx="376.73111"
       fy="609.92218"
       r="315.4028" />
    <radialGradient
       inkscape:collect="always"
       xlink:href="#linearGradient2130"
       id="radialGradient3981"
       gradientUnits="userSpaceOnUse"
       gradientTransform="matrix(1.623165,-2.064176e-7,1.61299e-7,1.268375,-234.7656,-163.6877)"
       cx="376.73111"
       cy="609.92218"
       fx="376.73111"
       fy="609.92218"
       r="315.4028" />
    <radialGradient
       inkscape:collect="always"
       xlink:href="#linearGradient2130"
       id="radialGradient3979"
       gradientUnits="userSpaceOnUse"
       gradientTransform="matrix(1.623165,-2.064176e-7,1.61299e-7,1.268375,-234.7656,-163.6877)"
       cx="376.73111"
       cy="609.92218"
       fx="376.73111"
       fy="609.92218"
       r="315.4028" />
    <radialGradient
       inkscape:collect="always"
       xlink:href="#linearGradient2130"
       id="radialGradient3977"
       gradientUnits="userSpaceOnUse"
       gradientTransform="matrix(1.623165,-2.064176e-7,1.61299e-7,1.268375,-234.7656,-163.6877)"
       cx="376.73111"
       cy="609.92218"
       fx="376.73111"
       fy="609.92218"
       r="315.4028" />
    <radialGradient
       inkscape:collect="always"
       xlink:href="#linearGradient2130"
       id="radialGradient3975"
       gradientUnits="userSpaceOnUse"
       gradientTransform="matrix(1.623165,-2.064176e-7,1.61299e-7,1.268375,-234.7656,-163.6877)"
       cx="376.73111"
       cy="609.92218"
       fx="376.73111"
       fy="609.92218"
       r="315.4028" />
    <radialGradient
       inkscape:collect="always"
       xlink:href="#linearGradient2130"
       id="radialGradient3973"
       gradientUnits="userSpaceOnUse"
       gradientTransform="matrix(1.623165,-2.064176e-7,1.61299e-7,1.268375,-234.7656,-163.6877)"
       cx="376.73111"
       cy="609.92218"
       fx="376.73111"
       fy="609.92218"
       r="315.4028" />
    <radialGradient
       inkscape:collect="always"
       xlink:href="#linearGradient2130"
       id="radialGradient3971"
       gradientUnits="userSpaceOnUse"
       gradientTransform="matrix(1.623165,-2.064176e-7,1.61299e-7,1.268375,-234.7656,-163.6877)"
       cx="376.73111"
       cy="609.92218"
       fx="376.73111"
       fy="609.92218"
       r="315.4028" />
    <filter
       inkscape:collect="always"
       x="-1.208129"
       width="3.4162581"
       y="-1.1919796"
       height="3.3839593"
       id="filter12516">
      <feGaussianBlur
         inkscape:collect="always"
         stdDeviation="325.52131"
         id="feGaussianBlur12518" />
    </filter>
    <radialGradient
       inkscape:collect="always"
       xlink:href="#linearGradient2150-457"
       id="radialGradient3969"
       gradientUnits="userSpaceOnUse"
       gradientTransform="matrix(1,0,0,1.013548,0,-8.263407)"
       cx="376.73111"
       cy="609.92218"
       fx="376.73111"
       fy="609.92218"
       r="323.33102" />
    <radialGradient
       inkscape:collect="always"
       xlink:href="#linearGradient2150-457"
       id="radialGradient3967"
       gradientUnits="userSpaceOnUse"
       gradientTransform="matrix(1,0,0,1.013548,0,-8.263407)"
       cx="376.73111"
       cy="609.92218"
       fx="376.73111"
       fy="609.92218"
       r="323.33102" />
    <radialGradient
       inkscape:collect="always"
       xlink:href="#linearGradient2150-457"
       id="radialGradient3965"
       gradientUnits="userSpaceOnUse"
       gradientTransform="matrix(1,0,0,1.013548,0,-8.263407)"
       cx="376.73111"
       cy="609.92218"
       fx="376.73111"
       fy="609.92218"
       r="323.33102" />
    <radialGradient
       inkscape:collect="always"
       xlink:href="#linearGradient2150-457"
       id="radialGradient3963"
       gradientUnits="userSpaceOnUse"
       gradientTransform="matrix(1,0,0,1.013548,0,-8.263407)"
       cx="376.73111"
       cy="609.92218"
       fx="376.73111"
       fy="609.92218"
       r="323.33102" />
    <radialGradient
       inkscape:collect="always"
       xlink:href="#linearGradient2150-457"
       id="radialGradient3961"
       gradientUnits="userSpaceOnUse"
       gradientTransform="matrix(1,0,0,1.013548,0,-8.263407)"
       cx="376.73111"
       cy="609.92218"
       fx="376.73111"
       fy="609.92218"
       r="323.33102" />
    <radialGradient
       inkscape:collect="always"
       xlink:href="#linearGradient2150-457"
       id="radialGradient3959"
       gradientUnits="userSpaceOnUse"
       gradientTransform="matrix(1,0,0,1.013548,0,-8.263407)"
       cx="376.73111"
       cy="609.92218"
       fx="376.73111"
       fy="609.92218"
       r="323.33102" />
    <radialGradient
       inkscape:collect="always"
       xlink:href="#linearGradient2150-457"
       id="radialGradient3957"
       gradientUnits="userSpaceOnUse"
       gradientTransform="matrix(1,0,0,1.013548,0,-8.263407)"
       cx="376.73111"
       cy="609.92218"
       fx="376.73111"
       fy="609.92218"
       r="323.33102" />
    <radialGradient
       inkscape:collect="always"
       xlink:href="#linearGradient2150-457"
       id="radialGradient3955"
       gradientUnits="userSpaceOnUse"
       gradientTransform="matrix(1,0,0,1.013548,0,-8.263407)"
       cx="376.73111"
       cy="609.92218"
       fx="376.73111"
       fy="609.92218"
       r="323.33102" />
    <radialGradient
       inkscape:collect="always"
       xlink:href="#linearGradient2150-457"
       id="radialGradient3953"
       gradientUnits="userSpaceOnUse"
       gradientTransform="matrix(1,0,0,1.013548,0,-8.263407)"
       cx="376.73111"
       cy="609.92218"
       fx="376.73111"
       fy="609.92218"
       r="323.33102" />
    <radialGradient
       inkscape:collect="always"
       xlink:href="#linearGradient2150-457"
       id="radialGradient3951"
       gradientUnits="userSpaceOnUse"
       gradientTransform="matrix(1,0,0,1.013548,0,-8.263407)"
       cx="376.73111"
       cy="609.92218"
       fx="376.73111"
       fy="609.92218"
       r="323.33102" />
    <radialGradient
       inkscape:collect="always"
       xlink:href="#linearGradient2150-457"
       id="radialGradient3949"
       gradientUnits="userSpaceOnUse"
       gradientTransform="matrix(1,0,0,1.013548,0,-8.263407)"
       cx="376.73111"
       cy="609.92218"
       fx="376.73111"
       fy="609.92218"
       r="323.33102" />
    <filter
       inkscape:collect="always"
       x="-0.42944545"
       width="1.8588909"
       y="-0.42370498"
       height="1.84741"
       id="filter12496">
      <feGaussianBlur
         inkscape:collect="always"
         stdDeviation="115.71087"
         id="feGaussianBlur12498" />
    </filter>
    <linearGradient
       id="linearGradient2150-457">
      <stop
         offset="0.0000000"
         id="stop7404"
         style="stop-color:#ff1919;stop-opacity:1.0000000;" />
      <stop
         offset="1.0000000"
         id="stop7406"
         style="stop-color:#fcfe49;stop-opacity:0.27380952;" />
    </linearGradient>
    <radialGradient
       inkscape:collect="always"
       xlink:href="#linearGradient2150-457"
       id="radialGradient3947"
       gradientUnits="userSpaceOnUse"
       gradientTransform="matrix(1,0,0,1.013548,0,-8.263407)"
       cx="376.73111"
       cy="609.92218"
       fx="376.73111"
       fy="609.92218"
       r="323.33102" />
    <linearGradient
       id="linearGradient2130">
      <stop
         offset="0.0000000"
         id="stop2132"
         style="stop-color:#ffff00;stop-opacity:1.0000000;" />
      <stop
         offset="1.0000000"
         id="stop2134"
         style="stop-color:#ff2d00;stop-opacity:0.36862746;" />
    </linearGradient>
    <radialGradient
       inkscape:collect="always"
       xlink:href="#linearGradient2130"
       id="radialGradient3945"
       gradientUnits="userSpaceOnUse"
       gradientTransform="matrix(1.623165,-2.064176e-7,1.61299e-7,1.268375,-234.7656,-163.6877)"
       cx="376.73111"
       cy="609.92218"
       fx="376.73111"
       fy="609.92218"
       r="315.4028" />
    <linearGradient
       id="linearGradient2112">
      <stop
         offset="0.0000000"
         id="stop2114"
         style="stop-color:#ff3500;stop-opacity:1.0000000;" />
      <stop
         offset="1.0000000"
         id="stop2116"
         style="stop-color:#ffff00;stop-opacity:0.36904761;" />
    </linearGradient>
    <radialGradient
       inkscape:collect="always"
       xlink:href="#linearGradient2112"
       id="radialGradient3943"
       gradientUnits="userSpaceOnUse"
       gradientTransform="matrix(1.623165,-2.064176e-7,1.61299e-7,1.268375,-234.7656,-163.6877)"
       cx="376.73111"
       cy="609.92218"
       fx="376.73111"
       fy="609.92218"
       r="315.4028" />
    <linearGradient
       id="linearGradient2088">
      <stop
         offset="0.0000000"
         id="stop2090"
         style="stop-color:#fb0000;stop-opacity:1.0000000;" />
      <stop
         offset="1.0000000"
         id="stop2092"
         style="stop-color:#ff8f00;stop-opacity:0.015686275;" />
    </linearGradient>
    <radialGradient
       inkscape:collect="always"
       xlink:href="#linearGradient2088"
       id="radialGradient3941"
       gradientUnits="userSpaceOnUse"
       gradientTransform="matrix(1.1036842,-1.2210736e-8,1.1662934e-8,1.0541701,-39.061066,-33.039512)"
       cx="376.73111"
       cy="609.92218"
       fx="376.73111"
       fy="609.92218"
       r="394.685" />
    <linearGradient
       id="linearGradient6338">
      <stop
         offset="0"
         id="stop6340"
         style="stop-color:#3b5e76;stop-opacity:1;" />
      <stop
         style="stop-color:#afc2d0;stop-opacity:0;"
         id="stop16465"
         offset="0.75" />
      <stop
         style="stop-color:#afc2d0;stop-opacity:0;"
         id="stop16463"
         offset="1" />
    </linearGradient>
    <linearGradient
       inkscape:collect="always"
       xlink:href="#linearGradient6338"
       id="linearGradient4066"
       gradientUnits="userSpaceOnUse"
       gradientTransform="matrix(0.1978591,0,0,0.2528775,351.84584,247.47524)"
       x1="105.91275"
       y1="66.000511"
       x2="364.63037"
       y2="66.000511" />
    <linearGradient
       inkscape:collect="always"
       xlink:href="#linearGradient6338"
       id="linearGradient2963"
       gradientUnits="userSpaceOnUse"
       gradientTransform="matrix(0.1978591,0,0,0.2528775,351.84584,247.47524)"
       x1="105.91275"
       y1="66.000511"
       x2="364.63037"
       y2="66.000511" />
    <inkscape:perspective
       sodipodi:type="inkscape:persp3d"
       inkscape:vp_x="0 : 526.18109 : 1"
       inkscape:vp_y="0 : 1000 : 0"
       inkscape:vp_z="744.09448 : 526.18109 : 1"
       inkscape:persp3d-origin="372.04724 : 350.78739 : 1"
       id="perspective2493" />
    <linearGradient
       gradientUnits="userSpaceOnUse"
       xlink:href="#linearGradient19837"
       id="linearGradient19843"
       y2="1417.6237"
       x2="1678.5588"
       y1="288.91214"
       x1="1678.5588" />
    <linearGradient
       gradientUnits="userSpaceOnUse"
       xlink:href="#linearGradient14071"
       id="linearGradient14077"
       y2="-1149.4908"
       x2="853.22852"
       y1="6994.7397"
       x1="853.22852" />
    <linearGradient
       gradientTransform="matrix(0.995461,0,0,0.995461,3.833802,3.912899)"
       gradientUnits="userSpaceOnUse"
       xlink:href="#linearGradient14012"
       id="linearGradient14022"
       y2="1703.6219"
       x2="1703.623"
       y1="1147.7113"
       x1="1026.7279" />
    <linearGradient
       gradientTransform="matrix(0.995461,0,0,0.995461,3.833802,3.912899)"
       gradientUnits="userSpaceOnUse"
       xlink:href="#linearGradient14004"
       id="linearGradient14010"
       y2="1775.3436"
       x2="514.25446"
       y1="-710.26196"
       x1="1531.1748" />
    <linearGradient
       id="linearGradient14004">
      <stop
         id="stop14006"
         offset="0"
         style="stop-color:white;stop-opacity:1" />
      <stop
         id="stop14008"
         offset="1"
         style="stop-color:white;stop-opacity:0" />
    </linearGradient>
    <linearGradient
       id="linearGradient14012">
      <stop
         id="stop14014"
         offset="0"
         style="stop-color:#00dc19;stop-opacity:1;" />
      <stop
         id="stop14016"
         offset="1"
         style="stop-color:#01ff5b;stop-opacity:0.58823532;" />
    </linearGradient>
    <linearGradient
       id="linearGradient14071">
      <stop
         id="stop14073"
         offset="0"
         style="stop-color:white;stop-opacity:1" />
      <stop
         id="stop14075"
         offset="1"
         style="stop-color:white;stop-opacity:0" />
    </linearGradient>
    <linearGradient
       id="linearGradient14977">
      <stop
         id="stop14979"
         offset="0"
         style="stop-color:white;stop-opacity:0.47058824" />
      <stop
         id="stop14981"
         offset="1"
         style="stop-color:white;stop-opacity:0.70588237" />
    </linearGradient>
    <linearGradient
       id="linearGradient19837">
      <stop
         id="stop19839"
         offset="0"
         style="stop-color:#00b415;stop-opacity:1;" />
      <stop
         id="stop19841"
         offset="1"
         style="stop-color:#00b415;stop-opacity:0;" />
    </linearGradient>
    <inkscape:perspective
       id="perspective54"
       inkscape:persp3d-origin="250 : 166.66666 : 1"
       inkscape:vp_z="500 : 249.99998 : 1"
       inkscape:vp_y="0 : 1000 : 0"
       inkscape:vp_x="0 : 249.99998 : 1"
       sodipodi:type="inkscape:persp3d" />
    <linearGradient
       x1="1026.7279"
       y1="1147.7113"
       x2="1703.623"
       y2="1703.6219"
       id="linearGradient14022-2"
       xlink:href="#linearGradient14012-7"
       gradientUnits="userSpaceOnUse"
       gradientTransform="matrix(0.995461,0,0,0.995461,3.833802,3.912899)" />
    <linearGradient
       id="linearGradient14012-7">
      <stop
         style="stop-color:#00dc19;stop-opacity:1;"
         offset="0"
         id="stop14014-0" />
      <stop
         style="stop-color:#01ff5b;stop-opacity:0.58823532;"
         offset="1"
         id="stop14016-9" />
    </linearGradient>
    <linearGradient
       x1="1531.1748"
       y1="-710.26196"
       x2="514.25446"
       y2="1775.3436"
       id="linearGradient14010-3"
       xlink:href="#linearGradient14004-6"
       gradientUnits="userSpaceOnUse"
       gradientTransform="matrix(0.995461,0,0,0.995461,3.833802,3.912899)" />
    <linearGradient
       id="linearGradient14004-6">
      <stop
         style="stop-color:white;stop-opacity:1"
         offset="0"
         id="stop14006-0" />
      <stop
         style="stop-color:white;stop-opacity:0"
         offset="1"
         id="stop14008-6" />
    </linearGradient>
    <linearGradient
       x1="1678.5588"
       y1="288.91214"
       x2="1678.5588"
       y2="1417.6237"
       id="linearGradient19843-2"
       xlink:href="#linearGradient19837-6"
       gradientUnits="userSpaceOnUse" />
    <linearGradient
       id="linearGradient19837-6">
      <stop
         style="stop-color:#00b415;stop-opacity:1;"
         offset="0"
         id="stop19839-1" />
      <stop
         style="stop-color:#00b415;stop-opacity:0;"
         offset="1"
         id="stop19841-8" />
    </linearGradient>
    <linearGradient
       x1="1026.7279"
       y1="1147.7113"
       x2="1703.623"
       y2="1703.6219"
       id="linearGradient14022-9"
       xlink:href="#linearGradient14012-2"
       gradientUnits="userSpaceOnUse"
       gradientTransform="matrix(0.995461,0,0,0.995461,3.833802,3.912899)" />
    <linearGradient
       id="linearGradient14012-2">
      <stop
         style="stop-color:#dc0000;stop-opacity:1"
         offset="0"
         id="stop14014-02" />
      <stop
         style="stop-color:#ff3d01;stop-opacity:0.58823532"
         offset="1"
         id="stop14016-3" />
    </linearGradient>
    <linearGradient
       x1="1531.1748"
       y1="-710.26196"
       x2="514.25446"
       y2="1775.3436"
       id="linearGradient14010-7"
       xlink:href="#linearGradient14004-5"
       gradientUnits="userSpaceOnUse"
       gradientTransform="matrix(0.995461,0,0,0.995461,3.833802,3.912899)" />
    <linearGradient
       id="linearGradient14004-5">
      <stop
         style="stop-color:white;stop-opacity:1"
         offset="0"
         id="stop14006-9" />
      <stop
         style="stop-color:white;stop-opacity:0"
         offset="1"
         id="stop14008-2" />
    </linearGradient>
    <linearGradient
       x1="1678.5588"
       y1="288.91214"
       x2="1678.5588"
       y2="1417.6237"
       id="linearGradient19843-28"
       xlink:href="#linearGradient19837-9"
       gradientUnits="userSpaceOnUse" />
    <linearGradient
       id="linearGradient19837-9">
      <stop
         style="stop-color:#b40000;stop-opacity:1"
         offset="0"
         id="stop19839-7" />
      <stop
         style="stop-color:#b40000;stop-opacity:0"
         offset="1"
         id="stop19841-3" />
    </linearGradient>
    <linearGradient
       x1="1026.7279"
       y1="1147.7113"
       x2="1703.623"
       y2="1703.6219"
       id="linearGradient14022-93"
       xlink:href="#linearGradient14012-74"
       gradientUnits="userSpaceOnUse"
       gradientTransform="matrix(0.995461,0,0,0.995461,3.833802,3.912899)" />
    <linearGradient
       id="linearGradient14012-74">
      <stop
         style="stop-color:#00dc19;stop-opacity:1;"
         offset="0"
         id="stop14014-5" />
      <stop
         style="stop-color:#01ff5b;stop-opacity:0.58823532;"
         offset="1"
         id="stop14016-2" />
    </linearGradient>
    <linearGradient
       x1="1531.1748"
       y1="-710.26196"
       x2="514.25446"
       y2="1775.3436"
       id="linearGradient14010-5"
       xlink:href="#linearGradient14004-4"
       gradientUnits="userSpaceOnUse"
       gradientTransform="matrix(0.995461,0,0,0.995461,3.833802,3.912899)" />
    <linearGradient
       id="linearGradient14004-4">
      <stop
         style="stop-color:white;stop-opacity:1"
         offset="0"
         id="stop14006-7" />
      <stop
         style="stop-color:white;stop-opacity:0"
         offset="1"
         id="stop14008-4" />
    </linearGradient>
    <linearGradient
       x1="1678.5588"
       y1="288.91214"
       x2="1678.5588"
       y2="1417.6237"
       id="linearGradient19843-4"
       xlink:href="#linearGradient19837-3"
       gradientUnits="userSpaceOnUse" />
    <linearGradient
       id="linearGradient19837-3">
      <stop
         style="stop-color:#00b415;stop-opacity:1;"
         offset="0"
         id="stop19839-0" />
      <stop
         style="stop-color:#00b415;stop-opacity:0;"
         offset="1"
         id="stop19841-7" />
    </linearGradient>
  </defs>
  <sodipodi:namedview
     id="base"
     pagecolor="#ffffff"
     bordercolor="#666666"
     borderopacity="1.0"
     inkscape:pageopacity="0.0"
     inkscape:pageshadow="2"
     inkscape:zoom="11.2"
     inkscape:cx="34.466287"
     inkscape:cy="21.052896"
     inkscape:document-units="px"
     inkscape:current-layer="layer1"
     width="48px"
     height="48px"
     inkscape:window-width="1440"
     inkscape:window-height="846"
     inkscape:window-x="0"
     inkscape:window-y="25"
     showgrid="false"
     inkscape:window-maximized="1" />
  <metadata
     id="metadata3943">
    <rdf:RDF>
      <cc:Work
         rdf:about="">
        <dc:format>image/svg+xml</dc:format>
        <dc:type
           rdf:resource="http://purl.org/dc/dcmitype/StillImage" />
        <dc:title></dc:title>
      </cc:Work>
    </rdf:RDF>
  </metadata>
  <g
     inkscape:label="Calque 1"
     inkscape:groupmode="layer"
     id="layer1"
     transform="translate(-370.28738,-233.34154)">
    <g
       id="g3028">
      <g
         transform="matrix(0.0885924,0,0,0.0885924,363.85716,225.9482)"
         id="g3813">
        <g
           transform="matrix(0.635729,0,0,0.635729,97.22012,23.98599)"
           id="g3815">
          <path
             id="path3817"
             sodipodi:cx="376.73111"
             sodipodi:cy="609.92218"
             transform="matrix(0.945988,0,0,0.945988,16.941,-67.57368)"
             d="M 692.13391,609.92218 A 315.4028,319.78339 0 0 1 376.73111,929.70557 315.4028,319.78339 0 0 1 61.328308,609.92218 315.4028,319.78339 0 0 1 376.73111,290.13879 315.4028,319.78339 0 0 1 692.13391,609.92218 Z"
             sodipodi:type="arc"
             style="fill:#ff6400;fill-opacity:1;fill-rule:nonzero;stroke:url(#radialGradient3941);stroke-width:240.40963745;stroke-linecap:round;stroke-linejoin:round;stroke-miterlimit:4;stroke-opacity:1;stroke-dasharray:none;stroke-dashoffset:0"
             sodipodi:ry="319.78339"
             sodipodi:rx="315.4028" />
          <path
             id="path3819"
             sodipodi:cx="376.73111"
             sodipodi:cy="609.92218"
             transform="matrix(0.945988,0,0,0.945988,16.941,-67.57368)"
             d="M 692.13391,609.92218 A 315.4028,319.78339 0 0 1 376.73111,929.70557 315.4028,319.78339 0 0 1 61.328308,609.92218 315.4028,319.78339 0 0 1 376.73111,290.13879 315.4028,319.78339 0 0 1 692.13391,609.92218 Z"
             sodipodi:type="arc"
             style="fill:url(#radialGradient3943);fill-opacity:1;fill-rule:nonzero;stroke:none"
             sodipodi:ry="319.78339"
             sodipodi:rx="315.4028" />
          <path
             id="path3821"
             sodipodi:cx="376.73111"
             sodipodi:cy="609.92218"
             transform="matrix(0.945988,0,0,0.945988,16.941,-67.57368)"
             d="M 692.13391,609.92218 A 315.4028,319.78339 0 0 1 376.73111,929.70557 315.4028,319.78339 0 0 1 61.328308,609.92218 315.4028,319.78339 0 0 1 376.73111,290.13879 315.4028,319.78339 0 0 1 692.13391,609.92218 Z"
             sodipodi:type="arc"
             style="opacity:0.78892733;fill:url(#radialGradient3945);fill-opacity:1;fill-rule:nonzero;stroke:none"
             sodipodi:ry="319.78339"
             sodipodi:rx="315.4028" />
          <path
             id="path3823"
             sodipodi:cx="376.73111"
             sodipodi:cy="609.92218"
             transform="matrix(0.969913,0,0,0.969913,7.875683,-82.21878)"
             d="M 692.13391,609.92218 A 315.4028,319.78339 0 0 1 376.73111,929.70557 315.4028,319.78339 0 0 1 61.328308,609.92218 315.4028,319.78339 0 0 1 376.73111,290.13879 315.4028,319.78339 0 0 1 692.13391,609.92218 Z"
             sodipodi:type="arc"
             style="opacity:0.78892733;fill:none;stroke:url(#radialGradient3947);stroke-width:15.85643768;stroke-linecap:round;stroke-linejoin:round;stroke-miterlimit:4;stroke-opacity:1;stroke-dasharray:none;stroke-dashoffset:0;filter:url(#filter12496)"
             sodipodi:ry="319.78339"
             sodipodi:rx="315.4028" />
          <g
             id="g3825">
            <path
               sodipodi:rx="315.4028"
               sodipodi:ry="319.78339"
               style="opacity:0.07172098;fill:none;stroke:url(#radialGradient3949);stroke-width:15.85643768;stroke-linecap:round;stroke-linejoin:round;stroke-miterlimit:4;stroke-opacity:1;stroke-dasharray:none;stroke-dashoffset:0"
               sodipodi:type="arc"
               d="M 692.13391,609.92218 A 315.4028,319.78339 0 0 1 376.73111,929.70557 315.4028,319.78339 0 0 1 61.328308,609.92218 315.4028,319.78339 0 0 1 376.73111,290.13879 315.4028,319.78339 0 0 1 692.13391,609.92218 Z"
               transform="matrix(0.969913,0,0,0.969913,7.875683,-82.21878)"
               sodipodi:cy="609.92218"
               sodipodi:cx="376.73111"
               id="path3827" />
            <path
               sodipodi:rx="315.4028"
               sodipodi:ry="319.78339"
               style="opacity:0.07172098;fill:none;stroke:url(#radialGradient3951);stroke-width:15.85643768;stroke-linecap:round;stroke-linejoin:round;stroke-miterlimit:4;stroke-opacity:1;stroke-dasharray:none;stroke-dashoffset:0"
               sodipodi:type="arc"
               d="M 692.13391,609.92218 A 315.4028,319.78339 0 0 1 376.73111,929.70557 315.4028,319.78339 0 0 1 61.328308,609.92218 315.4028,319.78339 0 0 1 376.73111,290.13879 315.4028,319.78339 0 0 1 692.13391,609.92218 Z"
               transform="matrix(0.969913,0,0,0.969913,7.875683,-82.21878)"
               sodipodi:cy="609.92218"
               sodipodi:cx="376.73111"
               id="path3829" />
            <path
               sodipodi:rx="315.4028"
               sodipodi:ry="319.78339"
               style="opacity:0.07172098;fill:none;stroke:url(#radialGradient3953);stroke-width:15.85643768;stroke-linecap:round;stroke-linejoin:round;stroke-miterlimit:4;stroke-opacity:1;stroke-dasharray:none;stroke-dashoffset:0"
               sodipodi:type="arc"
               d="M 692.13391,609.92218 A 315.4028,319.78339 0 0 1 376.73111,929.70557 315.4028,319.78339 0 0 1 61.328308,609.92218 315.4028,319.78339 0 0 1 376.73111,290.13879 315.4028,319.78339 0 0 1 692.13391,609.92218 Z"
               transform="matrix(0.969913,0,0,0.969913,7.875683,-82.21878)"
               sodipodi:cy="609.92218"
               sodipodi:cx="376.73111"
               id="path3831" />
            <path
               sodipodi:rx="315.4028"
               sodipodi:ry="319.78339"
               style="opacity:0.07172098;fill:none;stroke:url(#radialGradient3955);stroke-width:15.85643768;stroke-linecap:round;stroke-linejoin:round;stroke-miterlimit:4;stroke-opacity:1;stroke-dasharray:none;stroke-dashoffset:0"
               sodipodi:type="arc"
               d="M 692.13391,609.92218 A 315.4028,319.78339 0 0 1 376.73111,929.70557 315.4028,319.78339 0 0 1 61.328308,609.92218 315.4028,319.78339 0 0 1 376.73111,290.13879 315.4028,319.78339 0 0 1 692.13391,609.92218 Z"
               transform="matrix(0.969913,0,0,0.969913,7.875683,-82.21878)"
               sodipodi:cy="609.92218"
               sodipodi:cx="376.73111"
               id="path3833" />
            <path
               sodipodi:rx="315.4028"
               sodipodi:ry="319.78339"
               style="opacity:0.07172098;fill:none;stroke:url(#radialGradient3957);stroke-width:15.85643768;stroke-linecap:round;stroke-linejoin:round;stroke-miterlimit:4;stroke-opacity:1;stroke-dasharray:none;stroke-dashoffset:0"
               sodipodi:type="arc"
               d="M 692.13391,609.92218 A 315.4028,319.78339 0 0 1 376.73111,929.70557 315.4028,319.78339 0 0 1 61.328308,609.92218 315.4028,319.78339 0 0 1 376.73111,290.13879 315.4028,319.78339 0 0 1 692.13391,609.92218 Z"
               transform="matrix(0.969913,0,0,0.969913,7.875683,-82.21878)"
               sodipodi:cy="609.92218"
               sodipodi:cx="376.73111"
               id="path3835" />
            <path
               sodipodi:rx="315.4028"
               sodipodi:ry="319.78339"
               style="opacity:0.07172098;fill:none;stroke:url(#radialGradient3959);stroke-width:15.85643768;stroke-linecap:round;stroke-linejoin:round;stroke-miterlimit:4;stroke-opacity:1;stroke-dasharray:none;stroke-dashoffset:0"
               sodipodi:type="arc"
               d="M 692.13391,609.92218 A 315.4028,319.78339 0 0 1 376.73111,929.70557 315.4028,319.78339 0 0 1 61.328308,609.92218 315.4028,319.78339 0 0 1 376.73111,290.13879 315.4028,319.78339 0 0 1 692.13391,609.92218 Z"
               transform="matrix(0.969913,0,0,0.969913,7.875683,-82.21878)"
               sodipodi:cy="609.92218"
               sodipodi:cx="376.73111"
               id="path3837" />
            <path
               sodipodi:rx="315.4028"
               sodipodi:ry="319.78339"
               style="opacity:0.07172098;fill:none;stroke:url(#radialGradient3961);stroke-width:15.85643768;stroke-linecap:round;stroke-linejoin:round;stroke-miterlimit:4;stroke-opacity:1;stroke-dasharray:none;stroke-dashoffset:0"
               sodipodi:type="arc"
               d="M 692.13391,609.92218 A 315.4028,319.78339 0 0 1 376.73111,929.70557 315.4028,319.78339 0 0 1 61.328308,609.92218 315.4028,319.78339 0 0 1 376.73111,290.13879 315.4028,319.78339 0 0 1 692.13391,609.92218 Z"
               transform="matrix(0.969913,0,0,0.969913,7.875683,-82.21878)"
               sodipodi:cy="609.92218"
               sodipodi:cx="376.73111"
               id="path3839" />
            <path
               sodipodi:rx="315.4028"
               sodipodi:ry="319.78339"
               style="opacity:0.07172098;fill:none;stroke:url(#radialGradient3963);stroke-width:15.85643768;stroke-linecap:round;stroke-linejoin:round;stroke-miterlimit:4;stroke-opacity:1;stroke-dasharray:none;stroke-dashoffset:0"
               sodipodi:type="arc"
               d="M 692.13391,609.92218 A 315.4028,319.78339 0 0 1 376.73111,929.70557 315.4028,319.78339 0 0 1 61.328308,609.92218 315.4028,319.78339 0 0 1 376.73111,290.13879 315.4028,319.78339 0 0 1 692.13391,609.92218 Z"
               transform="matrix(0.969913,0,0,0.969913,7.875683,-82.21878)"
               sodipodi:cy="609.92218"
               sodipodi:cx="376.73111"
               id="path3841" />
            <path
               sodipodi:rx="315.4028"
               sodipodi:ry="319.78339"
               style="opacity:0.07172098;fill:none;stroke:url(#radialGradient3965);stroke-width:15.85643768;stroke-linecap:round;stroke-linejoin:round;stroke-miterlimit:4;stroke-opacity:1;stroke-dasharray:none;stroke-dashoffset:0"
               sodipodi:type="arc"
               d="M 692.13391,609.92218 A 315.4028,319.78339 0 0 1 376.73111,929.70557 315.4028,319.78339 0 0 1 61.328308,609.92218 315.4028,319.78339 0 0 1 376.73111,290.13879 315.4028,319.78339 0 0 1 692.13391,609.92218 Z"
               transform="matrix(0.969913,0,0,0.969913,7.875683,-82.21878)"
               sodipodi:cy="609.92218"
               sodipodi:cx="376.73111"
               id="path3843" />
            <path
               sodipodi:rx="315.4028"
               sodipodi:ry="319.78339"
               style="opacity:0.07172098;fill:none;stroke:url(#radialGradient3967);stroke-width:15.85643768;stroke-linecap:round;stroke-linejoin:round;stroke-miterlimit:4;stroke-opacity:1;stroke-dasharray:none;stroke-dashoffset:0"
               sodipodi:type="arc"
               d="M 692.13391,609.92218 A 315.4028,319.78339 0 0 1 376.73111,929.70557 315.4028,319.78339 0 0 1 61.328308,609.92218 315.4028,319.78339 0 0 1 376.73111,290.13879 315.4028,319.78339 0 0 1 692.13391,609.92218 Z"
               transform="matrix(0.969913,0,0,0.969913,7.875683,-82.21878)"
               sodipodi:cy="609.92218"
               sodipodi:cx="376.73111"
               id="path3845" />
            <path
               sodipodi:rx="315.4028"
               sodipodi:ry="319.78339"
               style="opacity:0.98083065;fill:none;stroke:url(#radialGradient3969);stroke-width:15.2411623;stroke-linecap:round;stroke-linejoin:round;stroke-miterlimit:4;stroke-opacity:1;stroke-dasharray:none;stroke-dashoffset:0;filter:url(#filter12516)"
               sodipodi:type="arc"
               d="M 692.13391,609.92218 A 315.4028,319.78339 0 0 1 376.73111,929.70557 315.4028,319.78339 0 0 1 61.328308,609.92218 315.4028,319.78339 0 0 1 376.73111,290.13879 315.4028,319.78339 0 0 1 692.13391,609.92218 Z"
               transform="matrix(0.969913,0,0,0.969913,7.875683,-82.21878)"
               sodipodi:cy="609.92218"
               sodipodi:cx="376.73111"
               id="path3847" />
          </g>
          <g
             id="g3849">
            <path
               sodipodi:rx="315.4028"
               sodipodi:ry="319.78339"
               style="opacity:0.039446;fill:url(#radialGradient3971);fill-opacity:1;fill-rule:nonzero;stroke:none"
               sodipodi:type="arc"
               d="M 692.13391,609.92218 A 315.4028,319.78339 0 0 1 376.73111,929.70557 315.4028,319.78339 0 0 1 61.328308,609.92218 315.4028,319.78339 0 0 1 376.73111,290.13879 315.4028,319.78339 0 0 1 692.13391,609.92218 Z"
               transform="matrix(0.945988,0,0,0.945988,16.941,-67.57368)"
               sodipodi:cy="609.92218"
               sodipodi:cx="376.73111"
               id="path3851" />
            <path
               sodipodi:rx="315.4028"
               sodipodi:ry="319.78339"
               style="opacity:0.039446;fill:url(#radialGradient3973);fill-opacity:1;fill-rule:nonzero;stroke:none"
               sodipodi:type="arc"
               d="M 692.13391,609.92218 A 315.4028,319.78339 0 0 1 376.73111,929.70557 315.4028,319.78339 0 0 1 61.328308,609.92218 315.4028,319.78339 0 0 1 376.73111,290.13879 315.4028,319.78339 0 0 1 692.13391,609.92218 Z"
               transform="matrix(0.945988,0,0,0.945988,16.941,-67.57368)"
               sodipodi:cy="609.92218"
               sodipodi:cx="376.73111"
               id="path3853" />
            <path
               sodipodi:rx="315.4028"
               sodipodi:ry="319.78339"
               style="opacity:0.039446;fill:url(#radialGradient3975);fill-opacity:1;fill-rule:nonzero;stroke:none"
               sodipodi:type="arc"
               d="M 692.13391,609.92218 A 315.4028,319.78339 0 0 1 376.73111,929.70557 315.4028,319.78339 0 0 1 61.328308,609.92218 315.4028,319.78339 0 0 1 376.73111,290.13879 315.4028,319.78339 0 0 1 692.13391,609.92218 Z"
               transform="matrix(0.945988,0,0,0.945988,16.941,-67.57368)"
               sodipodi:cy="609.92218"
               sodipodi:cx="376.73111"
               id="path3855" />
            <path
               sodipodi:rx="315.4028"
               sodipodi:ry="319.78339"
               style="opacity:0.039446;fill:url(#radialGradient3977);fill-opacity:1;fill-rule:nonzero;stroke:none"
               sodipodi:type="arc"
               d="M 692.13391,609.92218 A 315.4028,319.78339 0 0 1 376.73111,929.70557 315.4028,319.78339 0 0 1 61.328308,609.92218 315.4028,319.78339 0 0 1 376.73111,290.13879 315.4028,319.78339 0 0 1 692.13391,609.92218 Z"
               transform="matrix(0.945988,0,0,0.945988,16.941,-67.57368)"
               sodipodi:cy="609.92218"
               sodipodi:cx="376.73111"
               id="path3857" />
            <path
               sodipodi:rx="315.4028"
               sodipodi:ry="319.78339"
               style="opacity:0.039446;fill:url(#radialGradient3979);fill-opacity:1;fill-rule:nonzero;stroke:none"
               sodipodi:type="arc"
               d="M 692.13391,609.92218 A 315.4028,319.78339 0 0 1 376.73111,929.70557 315.4028,319.78339 0 0 1 61.328308,609.92218 315.4028,319.78339 0 0 1 376.73111,290.13879 315.4028,319.78339 0 0 1 692.13391,609.92218 Z"
               transform="matrix(0.945988,0,0,0.945988,16.941,-67.57368)"
               sodipodi:cy="609.92218"
               sodipodi:cx="376.73111"
               id="path3859" />
            <path
               sodipodi:rx="315.4028"
               sodipodi:ry="319.78339"
               style="opacity:0.039446;fill:url(#radialGradient3981);fill-opacity:1;fill-rule:nonzero;stroke:none"
               sodipodi:type="arc"
               d="M 692.13391,609.92218 A 315.4028,319.78339 0 0 1 376.73111,929.70557 315.4028,319.78339 0 0 1 61.328308,609.92218 315.4028,319.78339 0 0 1 376.73111,290.13879 315.4028,319.78339 0 0 1 692.13391,609.92218 Z"
               transform="matrix(0.945988,0,0,0.945988,16.941,-67.57368)"
               sodipodi:cy="609.92218"
               sodipodi:cx="376.73111"
               id="path3861" />
            <path
               sodipodi:rx="315.4028"
               sodipodi:ry="319.78339"
               style="opacity:0.039446;fill:url(#radialGradient3983);fill-opacity:1;fill-rule:nonzero;stroke:none"
               sodipodi:type="arc"
               d="M 692.13391,609.92218 A 315.4028,319.78339 0 0 1 376.73111,929.70557 315.4028,319.78339 0 0 1 61.328308,609.92218 315.4028,319.78339 0 0 1 376.73111,290.13879 315.4028,319.78339 0 0 1 692.13391,609.92218 Z"
               transform="matrix(0.945988,0,0,0.945988,16.941,-67.57368)"
               sodipodi:cy="609.92218"
               sodipodi:cx="376.73111"
               id="path3863" />
            <path
               sodipodi:rx="315.4028"
               sodipodi:ry="319.78339"
               style="opacity:0.039446;fill:url(#radialGradient3985);fill-opacity:1;fill-rule:nonzero;stroke:none"
               sodipodi:type="arc"
               d="M 692.13391,609.92218 A 315.4028,319.78339 0 0 1 376.73111,929.70557 315.4028,319.78339 0 0 1 61.328308,609.92218 315.4028,319.78339 0 0 1 376.73111,290.13879 315.4028,319.78339 0 0 1 692.13391,609.92218 Z"
               transform="matrix(0.945988,0,0,0.945988,16.941,-67.57368)"
               sodipodi:cy="609.92218"
               sodipodi:cx="376.73111"
               id="path3865" />
            <path
               sodipodi:rx="315.4028"
               sodipodi:ry="319.78339"
               style="opacity:0.039446;fill:url(#radialGradient3987);fill-opacity:1;fill-rule:nonzero;stroke:none"
               sodipodi:type="arc"
               d="M 692.13391,609.92218 A 315.4028,319.78339 0 0 1 376.73111,929.70557 315.4028,319.78339 0 0 1 61.328308,609.92218 315.4028,319.78339 0 0 1 376.73111,290.13879 315.4028,319.78339 0 0 1 692.13391,609.92218 Z"
               transform="matrix(0.945988,0,0,0.945988,16.941,-67.57368)"
               sodipodi:cy="609.92218"
               sodipodi:cx="376.73111"
               id="path3867" />
            <path
               sodipodi:rx="315.4028"
               sodipodi:ry="319.78339"
               style="opacity:0.039446;fill:url(#radialGradient3989);fill-opacity:1;fill-rule:nonzero;stroke:none"
               sodipodi:type="arc"
               d="M 692.13391,609.92218 A 315.4028,319.78339 0 0 1 376.73111,929.70557 315.4028,319.78339 0 0 1 61.328308,609.92218 315.4028,319.78339 0 0 1 376.73111,290.13879 315.4028,319.78339 0 0 1 692.13391,609.92218 Z"
               transform="matrix(0.945988,0,0,0.945988,16.941,-67.57368)"
               sodipodi:cy="609.92218"
               sodipodi:cx="376.73111"
               id="path3869" />
            <path
               sodipodi:rx="315.4028"
               sodipodi:ry="319.78339"
               style="opacity:0.039446;fill:url(#radialGradient3991);fill-opacity:1;fill-rule:nonzero;stroke:none"
               sodipodi:type="arc"
               d="M 692.13391,609.92218 A 315.4028,319.78339 0 0 1 376.73111,929.70557 315.4028,319.78339 0 0 1 61.328308,609.92218 315.4028,319.78339 0 0 1 376.73111,290.13879 315.4028,319.78339 0 0 1 692.13391,609.92218 Z"
               transform="matrix(0.945988,0,0,0.945988,16.941,-67.57368)"
               sodipodi:cy="609.92218"
               sodipodi:cx="376.73111"
               id="path3871" />
            <path
               sodipodi:rx="315.4028"
               sodipodi:ry="319.78339"
               style="opacity:0.039446;fill:url(#radialGradient3993);fill-opacity:1;fill-rule:nonzero;stroke:none"
               sodipodi:type="arc"
               d="M 692.13391,609.92218 A 315.4028,319.78339 0 0 1 376.73111,929.70557 315.4028,319.78339 0 0 1 61.328308,609.92218 315.4028,319.78339 0 0 1 376.73111,290.13879 315.4028,319.78339 0 0 1 692.13391,609.92218 Z"
               transform="matrix(0.945988,0,0,0.945988,16.941,-67.57368)"
               sodipodi:cy="609.92218"
               sodipodi:cx="376.73111"
               id="path3873" />
            <path
               sodipodi:rx="315.4028"
               sodipodi:ry="319.78339"
               style="opacity:0.039446;fill:url(#radialGradient3995);fill-opacity:1;fill-rule:nonzero;stroke:none"
               sodipodi:type="arc"
               d="M 692.13391,609.92218 A 315.4028,319.78339 0 0 1 376.73111,929.70557 315.4028,319.78339 0 0 1 61.328308,609.92218 315.4028,319.78339 0 0 1 376.73111,290.13879 315.4028,319.78339 0 0 1 692.13391,609.92218 Z"
               transform="matrix(0.945988,0,0,0.945988,16.941,-67.57368)"
               sodipodi:cy="609.92218"
               sodipodi:cx="376.73111"
               id="path3875" />
            <path
               sodipodi:rx="315.4028"
               sodipodi:ry="319.78339"
               style="opacity:0.039446;fill:url(#radialGradient3997);fill-opacity:1;fill-rule:nonzero;stroke:none"
               sodipodi:type="arc"
               d="M 692.13391,609.92218 A 315.4028,319.78339 0 0 1 376.73111,929.70557 315.4028,319.78339 0 0 1 61.328308,609.92218 315.4028,319.78339 0 0 1 376.73111,290.13879 315.4028,319.78339 0 0 1 692.13391,609.92218 Z"
               transform="matrix(0.945988,0,0,0.945988,16.941,-67.57368)"
               sodipodi:cy="609.92218"
               sodipodi:cx="376.73111"
               id="path3877" />
            <path
               sodipodi:rx="315.4028"
               sodipodi:ry="319.78339"
               style="opacity:0.039446;fill:url(#radialGradient3999);fill-opacity:1;fill-rule:nonzero;stroke:none"
               sodipodi:type="arc"
               d="M 692.13391,609.92218 A 315.4028,319.78339 0 0 1 376.73111,929.70557 315.4028,319.78339 0 0 1 61.328308,609.92218 315.4028,319.78339 0 0 1 376.73111,290.13879 315.4028,319.78339 0 0 1 692.13391,609.92218 Z"
               transform="matrix(0.945988,0,0,0.945988,16.941,-67.57368)"
               sodipodi:cy="609.92218"
               sodipodi:cx="376.73111"
               id="path3879" />
            <path
               sodipodi:rx="315.4028"
               sodipodi:ry="319.78339"
               style="opacity:0.039446;fill:url(#radialGradient4001);fill-opacity:1;fill-rule:nonzero;stroke:none"
               sodipodi:type="arc"
               d="M 692.13391,609.92218 A 315.4028,319.78339 0 0 1 376.73111,929.70557 315.4028,319.78339 0 0 1 61.328308,609.92218 315.4028,319.78339 0 0 1 376.73111,290.13879 315.4028,319.78339 0 0 1 692.13391,609.92218 Z"
               transform="matrix(0.945988,0,0,0.945988,16.941,-67.57368)"
               sodipodi:cy="609.92218"
               sodipodi:cx="376.73111"
               id="path3881" />
            <path
               sodipodi:rx="315.4028"
               sodipodi:ry="319.78339"
               style="opacity:0.039446;fill:url(#radialGradient4003);fill-opacity:1;fill-rule:nonzero;stroke:none"
               sodipodi:type="arc"
               d="M 692.13391,609.92218 A 315.4028,319.78339 0 0 1 376.73111,929.70557 315.4028,319.78339 0 0 1 61.328308,609.92218 315.4028,319.78339 0 0 1 376.73111,290.13879 315.4028,319.78339 0 0 1 692.13391,609.92218 Z"
               transform="matrix(0.945988,0,0,0.945988,16.941,-67.57368)"
               sodipodi:cy="609.92218"
               sodipodi:cx="376.73111"
               id="path3883" />
            <path
               sodipodi:rx="315.4028"
               sodipodi:ry="319.78339"
               style="opacity:0.039446;fill:url(#radialGradient4005);fill-opacity:1;fill-rule:nonzero;stroke:none"
               sodipodi:type="arc"
               d="M 692.13391,609.92218 A 315.4028,319.78339 0 0 1 376.73111,929.70557 315.4028,319.78339 0 0 1 61.328308,609.92218 315.4028,319.78339 0 0 1 376.73111,290.13879 315.4028,319.78339 0 0 1 692.13391,609.92218 Z"
               transform="matrix(0.945988,0,0,0.945988,16.941,-67.57368)"
               sodipodi:cy="609.92218"
               sodipodi:cx="376.73111"
               id="path3885" />
            <path
               sodipodi:rx="315.4028"
               sodipodi:ry="319.78339"
               style="opacity:0.039446;fill:url(#radialGradient4007);fill-opacity:1;fill-rule:nonzero;stroke:none"
               sodipodi:type="arc"
               d="M 692.13391,609.92218 A 315.4028,319.78339 0 0 1 376.73111,929.70557 315.4028,319.78339 0 0 1 61.328308,609.92218 315.4028,319.78339 0 0 1 376.73111,290.13879 315.4028,319.78339 0 0 1 692.13391,609.92218 Z"
               transform="matrix(0.945988,0,0,0.945988,16.941,-67.57368)"
               sodipodi:cy="609.92218"
               sodipodi:cx="376.73111"
               id="path3887" />
            <path
               sodipodi:rx="315.4028"
               sodipodi:ry="319.78339"
               style="opacity:0.039446;fill:url(#radialGradient4009);fill-opacity:1;fill-rule:nonzero;stroke:none"
               sodipodi:type="arc"
               d="M 692.13391,609.92218 A 315.4028,319.78339 0 0 1 376.73111,929.70557 315.4028,319.78339 0 0 1 61.328308,609.92218 315.4028,319.78339 0 0 1 376.73111,290.13879 315.4028,319.78339 0 0 1 692.13391,609.92218 Z"
               transform="matrix(0.945988,0,0,0.945988,16.941,-67.57368)"
               sodipodi:cy="609.92218"
               sodipodi:cx="376.73111"
               id="path3889" />
            <g
               id="g3891">
              <path
                 id="path3893"
                 sodipodi:cx="376.73111"
                 sodipodi:cy="609.92218"
                 transform="matrix(0.945988,0,0,0.945988,16.941,-67.57368)"
                 d="M 692.13391,609.92218 A 315.4028,319.78339 0 0 1 376.73111,929.70557 315.4028,319.78339 0 0 1 61.328308,609.92218 315.4028,319.78339 0 0 1 376.73111,290.13879 315.4028,319.78339 0 0 1 692.13391,609.92218 Z"
                 sodipodi:type="arc"
                 style="opacity:0.00197197;fill:url(#radialGradient4011);fill-opacity:1;fill-rule:nonzero;stroke:none"
                 sodipodi:ry="319.78339"
                 sodipodi:rx="315.4028" />
              <path
                 id="path3895"
                 sodipodi:cx="376.73111"
                 sodipodi:cy="609.92218"
                 transform="matrix(0.945988,0,0,0.945988,16.941,-67.57368)"
                 d="M 692.13391,609.92218 A 315.4028,319.78339 0 0 1 376.73111,929.70557 315.4028,319.78339 0 0 1 61.328308,609.92218 315.4028,319.78339 0 0 1 376.73111,290.13879 315.4028,319.78339 0 0 1 692.13391,609.92218 Z"
                 sodipodi:type="arc"
                 style="opacity:0.00197197;fill:url(#radialGradient4013);fill-opacity:1;fill-rule:nonzero;stroke:none"
                 sodipodi:ry="319.78339"
                 sodipodi:rx="315.4028" />
              <path
                 id="path3897"
                 sodipodi:cx="376.73111"
                 sodipodi:cy="609.92218"
                 transform="matrix(0.945988,0,0,0.945988,16.941,-67.57368)"
                 d="M 692.13391,609.92218 A 315.4028,319.78339 0 0 1 376.73111,929.70557 315.4028,319.78339 0 0 1 61.328308,609.92218 315.4028,319.78339 0 0 1 376.73111,290.13879 315.4028,319.78339 0 0 1 692.13391,609.92218 Z"
                 sodipodi:type="arc"
                 style="opacity:0.00197197;fill:url(#radialGradient4015);fill-opacity:1;fill-rule:nonzero;stroke:none"
                 sodipodi:ry="319.78339"
                 sodipodi:rx="315.4028" />
              <path
                 id="path3899"
                 sodipodi:cx="376.73111"
                 sodipodi:cy="609.92218"
                 transform="matrix(0.945988,0,0,0.945988,16.941,-67.57368)"
                 d="M 692.13391,609.92218 A 315.4028,319.78339 0 0 1 376.73111,929.70557 315.4028,319.78339 0 0 1 61.328308,609.92218 315.4028,319.78339 0 0 1 376.73111,290.13879 315.4028,319.78339 0 0 1 692.13391,609.92218 Z"
                 sodipodi:type="arc"
                 style="opacity:0.00197197;fill:url(#radialGradient4017);fill-opacity:1;fill-rule:nonzero;stroke:none"
                 sodipodi:ry="319.78339"
                 sodipodi:rx="315.4028" />
              <path
                 id="path3901"
                 sodipodi:cx="376.73111"
                 sodipodi:cy="609.92218"
                 transform="matrix(0.945988,0,0,0.945988,16.941,-67.57368)"
                 d="M 692.13391,609.92218 A 315.4028,319.78339 0 0 1 376.73111,929.70557 315.4028,319.78339 0 0 1 61.328308,609.92218 315.4028,319.78339 0 0 1 376.73111,290.13879 315.4028,319.78339 0 0 1 692.13391,609.92218 Z"
                 sodipodi:type="arc"
                 style="opacity:0.00197197;fill:url(#radialGradient4019);fill-opacity:1;fill-rule:nonzero;stroke:none"
                 sodipodi:ry="319.78339"
                 sodipodi:rx="315.4028" />
              <path
                 id="path3903"
                 sodipodi:cx="376.73111"
                 sodipodi:cy="609.92218"
                 transform="matrix(0.945988,0,0,0.945988,16.941,-67.57368)"
                 d="M 692.13391,609.92218 A 315.4028,319.78339 0 0 1 376.73111,929.70557 315.4028,319.78339 0 0 1 61.328308,609.92218 315.4028,319.78339 0 0 1 376.73111,290.13879 315.4028,319.78339 0 0 1 692.13391,609.92218 Z"
                 sodipodi:type="arc"
                 style="opacity:0.00197197;fill:url(#radialGradient4021);fill-opacity:1;fill-rule:nonzero;stroke:none"
                 sodipodi:ry="319.78339"
                 sodipodi:rx="315.4028" />
              <path
                 id="path3905"
                 sodipodi:cx="376.73111"
                 sodipodi:cy="609.92218"
                 transform="matrix(0.945988,0,0,0.945988,16.941,-67.57368)"
                 d="M 692.13391,609.92218 A 315.4028,319.78339 0 0 1 376.73111,929.70557 315.4028,319.78339 0 0 1 61.328308,609.92218 315.4028,319.78339 0 0 1 376.73111,290.13879 315.4028,319.78339 0 0 1 692.13391,609.92218 Z"
                 sodipodi:type="arc"
                 style="opacity:0.00197197;fill:url(#radialGradient4023);fill-opacity:1;fill-rule:nonzero;stroke:none"
                 sodipodi:ry="319.78339"
                 sodipodi:rx="315.4028" />
              <path
                 id="path3907"
                 sodipodi:cx="376.73111"
                 sodipodi:cy="609.92218"
                 transform="matrix(0.945988,0,0,0.945988,16.941,-67.57368)"
                 d="M 692.13391,609.92218 A 315.4028,319.78339 0 0 1 376.73111,929.70557 315.4028,319.78339 0 0 1 61.328308,609.92218 315.4028,319.78339 0 0 1 376.73111,290.13879 315.4028,319.78339 0 0 1 692.13391,609.92218 Z"
                 sodipodi:type="arc"
                 style="opacity:0.00197197;fill:url(#radialGradient4025);fill-opacity:1;fill-rule:nonzero;stroke:none"
                 sodipodi:ry="319.78339"
                 sodipodi:rx="315.4028" />
              <path
                 id="path3909"
                 sodipodi:cx="376.73111"
                 sodipodi:cy="609.92218"
                 transform="matrix(0.945988,0,0,0.945988,16.941,-67.57368)"
                 d="M 692.13391,609.92218 A 315.4028,319.78339 0 0 1 376.73111,929.70557 315.4028,319.78339 0 0 1 61.328308,609.92218 315.4028,319.78339 0 0 1 376.73111,290.13879 315.4028,319.78339 0 0 1 692.13391,609.92218 Z"
                 sodipodi:type="arc"
                 style="opacity:0.00197197;fill:url(#radialGradient4027);fill-opacity:1;fill-rule:nonzero;stroke:none"
                 sodipodi:ry="319.78339"
                 sodipodi:rx="315.4028" />
              <path
                 id="path3911"
                 sodipodi:cx="376.73111"
                 sodipodi:cy="609.92218"
                 transform="matrix(0.945988,0,0,0.945988,16.941,-67.57368)"
                 d="M 692.13391,609.92218 A 315.4028,319.78339 0 0 1 376.73111,929.70557 315.4028,319.78339 0 0 1 61.328308,609.92218 315.4028,319.78339 0 0 1 376.73111,290.13879 315.4028,319.78339 0 0 1 692.13391,609.92218 Z"
                 sodipodi:type="arc"
                 style="opacity:0.00197197;fill:url(#radialGradient4029);fill-opacity:1;fill-rule:nonzero;stroke:none"
                 sodipodi:ry="319.78339"
                 sodipodi:rx="315.4028" />
              <path
                 id="path3913"
                 sodipodi:cx="376.73111"
                 sodipodi:cy="609.92218"
                 transform="matrix(0.945988,0,0,0.945988,16.941,-67.57368)"
                 d="M 692.13391,609.92218 A 315.4028,319.78339 0 0 1 376.73111,929.70557 315.4028,319.78339 0 0 1 61.328308,609.92218 315.4028,319.78339 0 0 1 376.73111,290.13879 315.4028,319.78339 0 0 1 692.13391,609.92218 Z"
                 sodipodi:type="arc"
                 style="opacity:0.00197197;fill:url(#radialGradient4031);fill-opacity:1;fill-rule:nonzero;stroke:none"
                 sodipodi:ry="319.78339"
                 sodipodi:rx="315.4028" />
              <path
                 id="path3915"
                 sodipodi:cx="376.73111"
                 sodipodi:cy="609.92218"
                 transform="matrix(0.945988,0,0,0.945988,16.941,-67.57368)"
                 d="M 692.13391,609.92218 A 315.4028,319.78339 0 0 1 376.73111,929.70557 315.4028,319.78339 0 0 1 61.328308,609.92218 315.4028,319.78339 0 0 1 376.73111,290.13879 315.4028,319.78339 0 0 1 692.13391,609.92218 Z"
                 sodipodi:type="arc"
                 style="opacity:0.00197197;fill:url(#radialGradient4033);fill-opacity:1;fill-rule:nonzero;stroke:none"
                 sodipodi:ry="319.78339"
                 sodipodi:rx="315.4028" />
              <path
                 id="path3917"
                 sodipodi:cx="376.73111"
                 sodipodi:cy="609.92218"
                 transform="matrix(0.945988,0,0,0.945988,16.941,-67.57368)"
                 d="M 692.13391,609.92218 A 315.4028,319.78339 0 0 1 376.73111,929.70557 315.4028,319.78339 0 0 1 61.328308,609.92218 315.4028,319.78339 0 0 1 376.73111,290.13879 315.4028,319.78339 0 0 1 692.13391,609.92218 Z"
                 sodipodi:type="arc"
                 style="opacity:0.00197197;fill:url(#radialGradient4035);fill-opacity:1;fill-rule:nonzero;stroke:none"
                 sodipodi:ry="319.78339"
                 sodipodi:rx="315.4028" />
              <path
                 id="path3919"
                 sodipodi:cx="376.73111"
                 sodipodi:cy="609.92218"
                 transform="matrix(0.945988,0,0,0.945988,16.941,-67.57368)"
                 d="M 692.13391,609.92218 A 315.4028,319.78339 0 0 1 376.73111,929.70557 315.4028,319.78339 0 0 1 61.328308,609.92218 315.4028,319.78339 0 0 1 376.73111,290.13879 315.4028,319.78339 0 0 1 692.13391,609.92218 Z"
                 sodipodi:type="arc"
                 style="opacity:0.00197197;fill:url(#radialGradient4037);fill-opacity:1;fill-rule:nonzero;stroke:none"
                 sodipodi:ry="319.78339"
                 sodipodi:rx="315.4028" />
              <path
                 id="path3921"
                 sodipodi:cx="376.73111"
                 sodipodi:cy="609.92218"
                 transform="matrix(0.945988,0,0,0.945988,16.941,-67.57368)"
                 d="M 692.13391,609.92218 A 315.4028,319.78339 0 0 1 376.73111,929.70557 315.4028,319.78339 0 0 1 61.328308,609.92218 315.4028,319.78339 0 0 1 376.73111,290.13879 315.4028,319.78339 0 0 1 692.13391,609.92218 Z"
                 sodipodi:type="arc"
                 style="opacity:0.00197197;fill:url(#radialGradient4039);fill-opacity:1;fill-rule:nonzero;stroke:none"
                 sodipodi:ry="319.78339"
                 sodipodi:rx="315.4028" />
              <path
                 id="path3923"
                 sodipodi:cx="376.73111"
                 sodipodi:cy="609.92218"
                 transform="matrix(0.945988,0,0,0.945988,16.941,-67.57368)"
                 d="M 692.13391,609.92218 A 315.4028,319.78339 0 0 1 376.73111,929.70557 315.4028,319.78339 0 0 1 61.328308,609.92218 315.4028,319.78339 0 0 1 376.73111,290.13879 315.4028,319.78339 0 0 1 692.13391,609.92218 Z"
                 sodipodi:type="arc"
                 style="opacity:0.00197197;fill:url(#radialGradient4041);fill-opacity:1;fill-rule:nonzero;stroke:none"
                 sodipodi:ry="319.78339"
                 sodipodi:rx="315.4028" />
              <path
                 id="path3925"
                 sodipodi:cx="376.73111"
                 sodipodi:cy="609.92218"
                 transform="matrix(0.945988,0,0,0.945988,16.941,-67.57368)"
                 d="M 692.13391,609.92218 A 315.4028,319.78339 0 0 1 376.73111,929.70557 315.4028,319.78339 0 0 1 61.328308,609.92218 315.4028,319.78339 0 0 1 376.73111,290.13879 315.4028,319.78339 0 0 1 692.13391,609.92218 Z"
                 sodipodi:type="arc"
                 style="opacity:0.00197197;fill:url(#radialGradient4043);fill-opacity:1;fill-rule:nonzero;stroke:none"
                 sodipodi:ry="319.78339"
                 sodipodi:rx="315.4028" />
              <path
                 id="path3927"
                 sodipodi:cx="376.73111"
                 sodipodi:cy="609.92218"
                 transform="matrix(0.945988,0,0,0.945988,16.941,-67.57368)"
                 d="M 692.13391,609.92218 A 315.4028,319.78339 0 0 1 376.73111,929.70557 315.4028,319.78339 0 0 1 61.328308,609.92218 315.4028,319.78339 0 0 1 376.73111,290.13879 315.4028,319.78339 0 0 1 692.13391,609.92218 Z"
                 sodipodi:type="arc"
                 style="opacity:0.00197197;fill:url(#radialGradient4045);fill-opacity:1;fill-rule:nonzero;stroke:none"
                 sodipodi:ry="319.78339"
                 sodipodi:rx="315.4028" />
              <path
                 id="path3929"
                 sodipodi:cx="376.73111"
                 sodipodi:cy="609.92218"
                 transform="matrix(0.945988,0,0,0.945988,16.941,-67.57368)"
                 d="M 692.13391,609.92218 A 315.4028,319.78339 0 0 1 376.73111,929.70557 315.4028,319.78339 0 0 1 61.328308,609.92218 315.4028,319.78339 0 0 1 376.73111,290.13879 315.4028,319.78339 0 0 1 692.13391,609.92218 Z"
                 sodipodi:type="arc"
                 style="opacity:0.00197197;fill:url(#radialGradient4047);fill-opacity:1;fill-rule:nonzero;stroke:none"
                 sodipodi:ry="319.78339"
                 sodipodi:rx="315.4028" />
              <path
                 id="path3931"
                 sodipodi:cx="376.73111"
                 sodipodi:cy="609.92218"
                 transform="matrix(0.945988,0,0,0.945988,16.941,-67.57368)"
                 d="M 692.13391,609.92218 A 315.4028,319.78339 0 0 1 376.73111,929.70557 315.4028,319.78339 0 0 1 61.328308,609.92218 315.4028,319.78339 0 0 1 376.73111,290.13879 315.4028,319.78339 0 0 1 692.13391,609.92218 Z"
                 sodipodi:type="arc"
                 style="opacity:0.00197197;fill:url(#radialGradient4049);fill-opacity:1;fill-rule:nonzero;stroke:none"
                 sodipodi:ry="319.78339"
                 sodipodi:rx="315.4028" />
            </g>
          </g>
        </g>
        <path
           id="path3933"
           sodipodi:cx="325.55533"
           sodipodi:cy="383.40448"
           transform="matrix(1.154869,0,0,0.963134,-39.95642,-76.94691)"
           d="M 464.02403,383.40448 A 138.4687,133.54538 0 0 1 325.55533,516.94986 138.4687,133.54538 0 0 1 187.08662,383.40448 138.4687,133.54538 0 0 1 325.55533,249.8591 138.4687,133.54538 0 0 1 464.02403,383.40448 Z"
           sodipodi:type="arc"
           style="opacity:0.78892733;fill:url(#linearGradient4051);fill-opacity:1;fill-rule:nonzero;stroke:none"
           sodipodi:ry="133.54538"
           sodipodi:rx="138.4687" />
      </g>
      <text
         style="font-size:23.52924347px;font-style:normal;font-weight:normal;fill:#ffffff;fill-opacity:1;stroke:#ffffff;stroke-width:0.66580141;stroke-linecap:butt;stroke-linejoin:miter;stroke-miterlimit:4;stroke-opacity:1;stroke-dasharray:none;display:inline;font-family:DejaVu Sans"
         xml:space="preserve"
         transform="scale(0.97915832,1.0212853)"
         y="262.10089"
         x="383.53778"
         id="text4059"><tspan
           y="262.10089"
           x="383.53778"
           style="font-style:normal;font-variant:normal;font-weight:bold;font-stretch:normal;fill:#ffffff;fill-opacity:1;stroke:#ffffff;stroke-width:0.66580141;stroke-miterlimit:4;stroke-opacity:1;stroke-dasharray:none;font-family:DejaVu Sans;-inkscape-font-specification:DejaVu Sans Bold"
           sodipodi:role="line"
           id="tspan4061">CD</tspan></text>
      <path
         sodipodi:nodetypes="css"
         id="path4064"
         d="m 372.95006,267.29001 c 17.62931,0.4645 18.54947,-6.57468 22.35913,-6.50283 4.77138,0.0913 2.9749,7.06548 20.17424,6.60099"
         style="fill:url(#linearGradient2963);fill-opacity:1;fill-rule:evenodd;stroke:#aabdd6;stroke-width:1.5;stroke-linecap:butt;stroke-linejoin:miter;stroke-miterlimit:4;stroke-opacity:1;stroke-dasharray:none;display:inline" />
    </g>
    <g
       transform="matrix(0.00718206,0,0,0.00718206,395.68813,235.003)"
       style="display:inline"
       id="layer1-6">
      <path
         inkscape:connector-curvature="0"
         d="m 1417.5448,1699.8019 c 155.8422,0 282.178,-126.3348 282.178,-282.1782"
         style="fill:none;stroke:#e83131;stroke-width:10.2480011;stroke-linecap:round;stroke-linejoin:round;stroke-miterlimit:100;stroke-opacity:0.66666667;stroke-dasharray:none"
         id="path17680-1" />
      <path
         inkscape:connector-curvature="0"
         d="m 6.6549519,1417.6237 c 0,155.8434 126.3358581,282.1782 282.1781581,282.1782"
         style="fill:none;stroke:#e83131;stroke-width:10.2480011;stroke-linecap:round;stroke-linejoin:round;stroke-miterlimit:100;stroke-opacity:0.66666667;stroke-dasharray:none"
         id="path17682-2" />
      <line
         style="fill:none;stroke:#e83131;stroke-width:10.2480011;stroke-linecap:round;stroke-linejoin:round;stroke-miterlimit:100;stroke-opacity:0.66666667;stroke-dasharray:none"
         id="line17684-9"
         y2="1699.802"
         x2="1417.5448"
         y1="1699.802"
         x1="288.83316"
         stroke-miterlimit="500" />
      <line
         style="fill:none;stroke:#e83131;stroke-width:10.2480011;stroke-linecap:round;stroke-linejoin:round;stroke-miterlimit:100;stroke-opacity:0.66666667;stroke-dasharray:none"
         id="line17690-3"
         y2="1417.6238"
         x2="6.654954"
         y1="288.91214"
         x1="6.654954"
         stroke-miterlimit="500" />
      <path
         inkscape:connector-curvature="0"
         d="M 288.83311,6.7339793 C 132.99081,6.7339793 6.6549519,133.06984 6.6549519,288.91214"
         style="fill:none;stroke:#e83131;stroke-width:10.2480011;stroke-linecap:round;stroke-linejoin:round;stroke-miterlimit:100;stroke-opacity:0.66666667;stroke-dasharray:none"
         id="path17692-1" />
      <line
         style="fill:none;stroke:#e83131;stroke-width:10.2480011;stroke-linecap:round;stroke-linejoin:round;stroke-miterlimit:100;stroke-opacity:0.66666667;stroke-dasharray:none"
         id="line17694-9"
         y2="6.733994"
         x2="288.83316"
         y1="6.733994"
         x1="1417.5448"
         stroke-miterlimit="500" />
      <line
         style="fill:none;stroke:#e83131;stroke-width:10.2480011;stroke-linecap:round;stroke-linejoin:round;stroke-miterlimit:100;stroke-opacity:0.66666667;stroke-dasharray:none"
         id="line17700-4"
         y2="288.91214"
         x2="1699.7231"
         y1="1417.6238"
         x1="1699.7231"
         stroke-miterlimit="500" />
      <path
         inkscape:connector-curvature="0"
         d="m 1699.7228,288.91214 c 0,-74.83772 -29.7294,-146.6104 -82.648,-199.529068 C 1564.1561,36.464399 1492.3835,6.7349693 1417.5457,6.7349693 l -1128.71259,0 C 213.9944,6.7349693 142.22172,36.464399 89.303052,89.383072 36.385372,142.30174 6.6549519,214.07442 6.6549519,288.91214 l 0,1128.71156 c 0,74.8388 29.7294301,146.6115 82.6481001,199.5291 52.918668,52.9188 124.691348,82.6482 199.530058,82.6482 l 1128.71169,0 c 74.8387,0 146.6104,-29.7294 199.529,-82.6482 52.9187,-52.9176 82.6481,-124.6913 82.6481,-199.5291 l 0,-1128.71156 9e-4,0 z"
         style="fill:url(#linearGradient14022-9);fill-opacity:1;fill-rule:evenodd;display:inline"
         id="path17668-7" />
      <path
         inkscape:connector-curvature="0"
         d="m 1699.7228,288.91214 c 0,-155.8423 -126.3358,-282.1771707 -282.178,-282.1771707 l -1128.71169,0 C 132.99081,6.7339793 6.6549519,133.06984 6.6549519,288.91214 l 0,846.53356 C 684.27075,1188.7794 1335.8205,863.00502 1699.7228,288.91214 z"
         style="fill:url(#linearGradient14010-7);fill-opacity:1;fill-rule:evenodd;display:inline"
         id="path17670-8" />
      <path
         inkscape:connector-curvature="0"
         d="m 1417.5448,1671.5836 c 140.9581,-10.4224 257.0159,-114.8742 282.178,-253.9599 0,155.8434 -126.3358,282.1782 -282.178,282.1782 l -1128.71169,0 c -155.8423,0 -282.1781581,-126.3348 -282.1781581,-282.1782 25.1612601,139.0857 141.2199881,243.5375 282.1781581,253.9599 l 1128.71169,0 z"
         style="fill:#ffffff;fill-opacity:0.25842698;fill-rule:evenodd"
         id="path11342-4" />
      <path
         inkscape:connector-curvature="0"
         d="m 1417.5448,1699.8019 c 155.8422,0 282.178,-126.3348 282.178,-282.1782"
         style="fill:none;stroke:#ff5555;stroke-width:14.93190384;stroke-linecap:round;stroke-linejoin:round;stroke-miterlimit:100;stroke-opacity:1;stroke-dasharray:none"
         id="path11336-5" />
      <path
         inkscape:connector-curvature="0"
         d="m 6.6549519,1417.6237 c 0,155.8434 126.3358581,282.1782 282.1781581,282.1782"
         style="fill:none;stroke:#ff5555;stroke-width:14.93190384;stroke-linecap:round;stroke-linejoin:round;stroke-miterlimit:100;stroke-opacity:1;stroke-dasharray:none"
         id="path11334-0" />
      <line
         stroke-miterlimit="500"
         x1="288.83316"
         y1="1699.802"
         x2="1417.5448"
         y2="1699.802"
         id="line11326-3"
         style="fill:none;stroke:#ff5555;stroke-width:14.93190384;stroke-linecap:round;stroke-linejoin:round;stroke-miterlimit:100;stroke-opacity:1;stroke-dasharray:none" />
      <line
         stroke-miterlimit="500"
         x1="6.654954"
         y1="288.91214"
         x2="6.654954"
         y2="1417.6238"
         id="line11332-6"
         style="fill:none;stroke:#ff5555;stroke-width:14.93190384;stroke-linecap:round;stroke-linejoin:round;stroke-miterlimit:100;stroke-opacity:1;stroke-dasharray:none" />
      <path
         inkscape:connector-curvature="0"
         d="M 288.83311,6.7339793 C 132.99081,6.7339793 6.6549519,133.06984 6.6549519,288.91214"
         style="fill:none;stroke:#ff5555;stroke-width:14.93190384;stroke-linecap:round;stroke-linejoin:round;stroke-miterlimit:100;stroke-opacity:1;stroke-dasharray:none"
         id="path11340-1" />
      <line
         stroke-miterlimit="500"
         x1="1417.5448"
         y1="6.733994"
         x2="288.83316"
         y2="6.733994"
         id="line11330-0"
         style="fill:none;stroke:#ff5555;stroke-width:14.93190384;stroke-linecap:round;stroke-linejoin:round;stroke-miterlimit:100;stroke-opacity:1;stroke-dasharray:none" />
      <path
         inkscape:connector-curvature="0"
         d="m 1699.7228,288.91214 c 0,-155.8423 -126.3358,-282.1771707 -282.178,-282.1771707"
         style="fill:none;stroke:#ff5555;stroke-width:14.93190384;stroke-linecap:round;stroke-linejoin:round;stroke-miterlimit:100;stroke-opacity:1;stroke-dasharray:none"
         id="path11338-6" />
      <line
         stroke-miterlimit="500"
         x1="1699.7231"
         y1="1417.6238"
         x2="1699.7231"
         y2="288.91214"
         id="line11328-3"
         style="fill:none;stroke:#ff5555;stroke-width:14.93190384;stroke-linecap:round;stroke-linejoin:round;stroke-miterlimit:100;stroke-opacity:1;stroke-dasharray:none" />
      <path
         inkscape:connector-curvature="0"
         d="m 1417.5448,1671.5836 c 140.9581,-10.4224 257.0159,-114.8742 282.178,-253.9599 0,155.8434 -126.3358,282.1782 -282.178,282.1782 l -1128.71169,0 c -155.8423,0 -282.1781581,-126.3348 -282.1781581,-282.1782 25.1612601,139.0857 141.2199881,243.5375 282.1781581,253.9599 l 1128.71169,0 z"
         style="fill:#ffffff;fill-opacity:0.58823529;fill-rule:evenodd"
         id="path17676-2" />
      <path
         inkscape:connector-curvature="0"
         d="m 1699.7228,288.91214 c 0,-155.8423 -126.3358,-282.1771707 -282.178,-282.1771707"
         style="fill:none;stroke:#e83131;stroke-width:10.2480011;stroke-linecap:round;stroke-linejoin:round;stroke-miterlimit:100;stroke-opacity:0.66666667;stroke-dasharray:none"
         id="path17696-0" />
      <path
         inkscape:connector-curvature="0"
         d="m 6.6549519,1417.6237 c 23.3764001,0 42.3269701,-252.6697 42.3269701,-564.35625 0,-311.68459 -18.95057,-564.35531 -42.3269701,-564.35531 l 0,1128.71156 0,0 z"
         style="fill:#b40000;fill-opacity:0.58823529;fill-rule:evenodd"
         id="path11324-6" />
      <path
         inkscape:connector-curvature="0"
         d="m 1699.7228,1417.6237 c -23.3763,0 -42.3279,-252.6697 -42.3279,-564.35625 0,-311.68459 18.9506,-564.35531 42.3279,-564.35531 l 0,1128.71156 z"
         style="fill:url(#linearGradient19843-28);fill-opacity:1;fill-rule:evenodd"
         id="path11322-1" />
      <path
         inkscape:connector-curvature="0"
         d="M 1699.7228,288.91214 C 1652.7113,168.68342 1545.1607,82.642811 1417.5448,63.170614 l -1128.71169,0 C 161.21708,82.642811 53.666562,168.68243 6.6549519,288.91214 6.6549519,133.06984 132.99081,6.7349693 288.83311,6.7349693 l 1128.71169,0 c 155.8422,-9.9e-4 282.178,126.3348707 282.178,282.1771707 z"
         style="fill:#ffffff;fill-opacity:0.54901961;fill-rule:evenodd"
         id="path14085-5" />
    </g>
    <g
       transform="matrix(0.00712199,0,0,0.00712199,380.53997,234.94148)"
       style="display:inline"
       id="layer1-8">
      <path
         inkscape:connector-curvature="0"
         d="m 1417.5448,1699.8019 c 155.8422,0 282.178,-126.3348 282.178,-282.1782"
         style="fill:none;stroke:#e83131;stroke-width:10.2480011;stroke-linecap:round;stroke-linejoin:round;stroke-miterlimit:100;stroke-opacity:0.66666667;stroke-dasharray:none"
         id="path17680-6" />
      <path
         inkscape:connector-curvature="0"
         d="m 6.6549519,1417.6237 c 0,155.8434 126.3358581,282.1782 282.1781581,282.1782"
         style="fill:none;stroke:#e83131;stroke-width:10.2480011;stroke-linecap:round;stroke-linejoin:round;stroke-miterlimit:100;stroke-opacity:0.66666667;stroke-dasharray:none"
         id="path17682-8" />
      <line
         style="fill:none;stroke:#e83131;stroke-width:10.2480011;stroke-linecap:round;stroke-linejoin:round;stroke-miterlimit:100;stroke-opacity:0.66666667;stroke-dasharray:none"
         id="line17684-8"
         y2="1699.802"
         x2="1417.5448"
         y1="1699.802"
         x1="288.83316"
         stroke-miterlimit="500" />
      <line
         style="fill:none;stroke:#e83131;stroke-width:10.2480011;stroke-linecap:round;stroke-linejoin:round;stroke-miterlimit:100;stroke-opacity:0.66666667;stroke-dasharray:none"
         id="line17690-4"
         y2="1417.6238"
         x2="6.654954"
         y1="288.91214"
         x1="6.654954"
         stroke-miterlimit="500" />
      <path
         inkscape:connector-curvature="0"
         d="M 288.83311,6.7339793 C 132.99081,6.7339793 6.6549519,133.06984 6.6549519,288.91214"
         style="fill:none;stroke:#e83131;stroke-width:10.2480011;stroke-linecap:round;stroke-linejoin:round;stroke-miterlimit:100;stroke-opacity:0.66666667;stroke-dasharray:none"
         id="path17692-3" />
      <line
         style="fill:none;stroke:#e83131;stroke-width:10.2480011;stroke-linecap:round;stroke-linejoin:round;stroke-miterlimit:100;stroke-opacity:0.66666667;stroke-dasharray:none"
         id="line17694-1"
         y2="6.733994"
         x2="288.83316"
         y1="6.733994"
         x1="1417.5448"
         stroke-miterlimit="500" />
      <line
         style="fill:none;stroke:#e83131;stroke-width:10.2480011;stroke-linecap:round;stroke-linejoin:round;stroke-miterlimit:100;stroke-opacity:0.66666667;stroke-dasharray:none"
         id="line17700-49"
         y2="288.91214"
         x2="1699.7231"
         y1="1417.6238"
         x1="1699.7231"
         stroke-miterlimit="500" />
      <path
         inkscape:connector-curvature="0"
         d="m 1699.7228,288.91214 c 0,-74.83772 -29.7294,-146.6104 -82.648,-199.529068 C 1564.1561,36.464399 1492.3835,6.7349693 1417.5457,6.7349693 l -1128.71259,0 C 213.9944,6.7349693 142.22172,36.464399 89.303052,89.383072 36.385372,142.30174 6.6549519,214.07442 6.6549519,288.91214 l 0,1128.71156 c 0,74.8388 29.7294301,146.6115 82.6481001,199.5291 52.918668,52.9188 124.691348,82.6482 199.530058,82.6482 l 1128.71169,0 c 74.8387,0 146.6104,-29.7294 199.529,-82.6482 52.9187,-52.9176 82.6481,-124.6913 82.6481,-199.5291 l 0,-1128.71156 9e-4,0 z"
         style="fill:url(#linearGradient14022-93);fill-opacity:1;fill-rule:evenodd;display:inline"
         id="path17668-2" />
      <path
         inkscape:connector-curvature="0"
         d="m 1699.7228,288.91214 c 0,-155.8423 -126.3358,-282.1771707 -282.178,-282.1771707 l -1128.71169,0 C 132.99081,6.7339793 6.6549519,133.06984 6.6549519,288.91214 l 0,846.53356 C 684.27075,1188.7794 1335.8205,863.00502 1699.7228,288.91214 z"
         style="fill:url(#linearGradient14010-5);fill-opacity:1;fill-rule:evenodd;display:inline"
         id="path17670-0" />
      <path
         inkscape:connector-curvature="0"
         d="m 1417.5448,1671.5836 c 140.9581,-10.4224 257.0159,-114.8742 282.178,-253.9599 0,155.8434 -126.3358,282.1782 -282.178,282.1782 l -1128.71169,0 c -155.8423,0 -282.1781581,-126.3348 -282.1781581,-282.1782 25.1612601,139.0857 141.2199881,243.5375 282.1781581,253.9599 l 1128.71169,0 z"
         style="fill:#ffffff;fill-opacity:0.25842698;fill-rule:evenodd"
         id="path11342-6" />
      <path
         inkscape:connector-curvature="0"
         d="m 1417.5448,1699.8019 c 155.8422,0 282.178,-126.3348 282.178,-282.1782"
         style="fill:none;stroke:#55ff69;stroke-width:14.93190384;stroke-linecap:round;stroke-linejoin:round;stroke-miterlimit:100;stroke-opacity:1;stroke-dasharray:none"
         id="path11336-8" />
      <path
         inkscape:connector-curvature="0"
         d="m 6.6549519,1417.6237 c 0,155.8434 126.3358581,282.1782 282.1781581,282.1782"
         style="fill:none;stroke:#55ff69;stroke-width:14.93190384;stroke-linecap:round;stroke-linejoin:round;stroke-miterlimit:100;stroke-opacity:1;stroke-dasharray:none"
         id="path11334-9" />
      <line
         stroke-miterlimit="500"
         x1="288.83316"
         y1="1699.802"
         x2="1417.5448"
         y2="1699.802"
         id="line11326-2"
         style="fill:none;stroke:#55ff69;stroke-width:14.93190384;stroke-linecap:round;stroke-linejoin:round;stroke-miterlimit:100;stroke-opacity:1;stroke-dasharray:none" />
      <line
         stroke-miterlimit="500"
         x1="6.654954"
         y1="288.91214"
         x2="6.654954"
         y2="1417.6238"
         id="line11332-66"
         style="fill:none;stroke:#55ff69;stroke-width:14.93190384;stroke-linecap:round;stroke-linejoin:round;stroke-miterlimit:100;stroke-opacity:1;stroke-dasharray:none" />
      <path
         inkscape:connector-curvature="0"
         d="M 288.83311,6.7339793 C 132.99081,6.7339793 6.6549519,133.06984 6.6549519,288.91214"
         style="fill:none;stroke:#55ff69;stroke-width:14.93190384;stroke-linecap:round;stroke-linejoin:round;stroke-miterlimit:100;stroke-opacity:1;stroke-dasharray:none"
         id="path11340-4" />
      <line
         stroke-miterlimit="500"
         x1="1417.5448"
         y1="6.733994"
         x2="288.83316"
         y2="6.733994"
         id="line11330-9"
         style="fill:none;stroke:#55ff69;stroke-width:14.93190384;stroke-linecap:round;stroke-linejoin:round;stroke-miterlimit:100;stroke-opacity:1;stroke-dasharray:none" />
      <path
         inkscape:connector-curvature="0"
         d="m 1699.7228,288.91214 c 0,-155.8423 -126.3358,-282.1771707 -282.178,-282.1771707"
         style="fill:none;stroke:#55ff69;stroke-width:14.93190384;stroke-linecap:round;stroke-linejoin:round;stroke-miterlimit:100;stroke-opacity:1;stroke-dasharray:none"
         id="path11338-5" />
      <line
         stroke-miterlimit="500"
         x1="1699.7231"
         y1="1417.6238"
         x2="1699.7231"
         y2="288.91214"
         id="line11328-0"
         style="fill:none;stroke:#55ff69;stroke-width:14.93190384;stroke-linecap:round;stroke-linejoin:round;stroke-miterlimit:100;stroke-opacity:1;stroke-dasharray:none" />
      <path
         inkscape:connector-curvature="0"
         d="m 1417.5448,1671.5836 c 140.9581,-10.4224 257.0159,-114.8742 282.178,-253.9599 0,155.8434 -126.3358,282.1782 -282.178,282.1782 l -1128.71169,0 c -155.8423,0 -282.1781581,-126.3348 -282.1781581,-282.1782 25.1612601,139.0857 141.2199881,243.5375 282.1781581,253.9599 l 1128.71169,0 z"
         style="fill:#ffffff;fill-opacity:0.58823529;fill-rule:evenodd"
         id="path17676-4" />
      <path
         inkscape:connector-curvature="0"
         d="m 1699.7228,288.91214 c 0,-155.8423 -126.3358,-282.1771707 -282.178,-282.1771707"
         style="fill:none;stroke:#31e846;stroke-width:10.2480011;stroke-linecap:round;stroke-linejoin:round;stroke-miterlimit:100;stroke-opacity:0.66666667;stroke-dasharray:none"
         id="path17696-8" />
      <path
         inkscape:connector-curvature="0"
         d="m 6.6549519,1417.6237 c 23.3764001,0 42.3269701,-252.6697 42.3269701,-564.35625 0,-311.68459 -18.95057,-564.35531 -42.3269701,-564.35531 l 0,1128.71156 0,0 z"
         style="fill:#00b415;fill-opacity:0.58823529;fill-rule:evenodd"
         id="path11324-7" />
      <path
         inkscape:connector-curvature="0"
         d="m 1699.7228,1417.6237 c -23.3763,0 -42.3279,-252.6697 -42.3279,-564.35625 0,-311.68459 18.9506,-564.35531 42.3279,-564.35531 l 0,1128.71156 z"
         style="fill:url(#linearGradient19843-4);fill-opacity:1;fill-rule:evenodd"
         id="path11322-17" />
      <path
         inkscape:connector-curvature="0"
         d="M 1699.7228,288.91214 C 1652.7113,168.68342 1545.1607,82.642811 1417.5448,63.170614 l -1128.71169,0 C 161.21708,82.642811 53.666562,168.68243 6.6549519,288.91214 6.6549519,133.06984 132.99081,6.7349693 288.83311,6.7349693 l 1128.71169,0 c 155.8422,-9.9e-4 282.178,126.3348707 282.178,282.1771707 z"
         style="fill:#ffffff;fill-opacity:0.54901961;fill-rule:evenodd"
         id="path14085-2" />
    </g>
  </g>
</svg>
